test_run_dir/LFSRMaxPeriod/2021070521345316638180635170613555/dump.vcd
$version Generated by VerilatedVcd $end
$date Mon Jul  5 21:34:55 2021 $end
$timescale 1ps $end

 $scope module TOP $end
  $var wire  1 2 clock $end
  $var wire  1 3 reset $end
  $scope module LFSRMaxPeriod $end
   $var wire  1 2 clock $end
   $var wire  6 1 last [5:0] $end
   $var wire  1 3 reset $end
   $var wire  6 + rv [5:0] $end
   $var wire  3 * rv_hi [2:0] $end
   $var wire  3 ) rv_lo [2:0] $end
   $var wire  1 2 rv_prng_clock $end
   $var wire  1 # rv_prng_io_out_0 $end
   $var wire  1 $ rv_prng_io_out_1 $end
   $var wire  1 % rv_prng_io_out_2 $end
   $var wire  1 & rv_prng_io_out_3 $end
   $var wire  1 ' rv_prng_io_out_4 $end
   $var wire  1 ( rv_prng_io_out_5 $end
   $var wire  1 3 rv_prng_reset $end
   $var wire  6 - seed [5:0] $end
   $var wire  1 , started $end
   $var wire  1 0 wrap $end
   $var wire  6 . wrap_value [5:0] $end
   $var wire  1 / wrap_wrap_wrap $end
   $scope module rv_prng $end
    $var wire  1 2 clock $end
    $var wire  1 # io_out_0 $end
    $var wire  1 $ io_out_1 $end
    $var wire  1 % io_out_2 $end
    $var wire  1 & io_out_3 $end
    $var wire  1 ' io_out_4 $end
    $var wire  1 ( io_out_5 $end
    $var wire  1 3 reset $end
    $var wire  1 # state_0 $end
    $var wire  1 $ state_1 $end
    $var wire  1 % state_2 $end
    $var wire  1 & state_3 $end
    $var wire  1 ' state_4 $end
    $var wire  1 ( state_5 $end
   $upscope $end
  $upscope $end
 $upscope $end
$enddefinitions $end


#0
0#
0$
0%
0&
0'
0(
b000 )
b000 *
b000000 +
0,
b000000 -
b000000 .
0/
00
b000000 1
02
13
#1
1#
b001 )
b000001 +
12
#2
#3
#4
#5
#6
02
#7
#8
#9
#10
03
#11
0#
1$
1%
1'
1(
b110 )
b110 *
b110110 +
1,
b000001 -
b000001 1
12
#12
#13
#14
#15
#16
02
#17
#18
#19
#20
#21
1#
0%
1&
0(
b011 )
b011 *
b011011 +
b000001 .
b110110 1
12
#22
#23
#24
#25
#26
02
#27
#28
#29
#30
#31
1(
b111 *
b111011 +
b000010 .
b011011 1
12
#32
#33
#34
#35
#36
02
#37
#38
#39
#40
#41
0'
b101 *
b101011 +
b000011 .
b111011 1
12
#42
#43
#44
#45
#46
02
#47
#48
#49
#50
#51
0&
b100 *
b100011 +
b000100 .
b101011 1
12
#52
#53
#54
#55
#56
02
#57
#58
#59
#60
#61
1%
b111 )
b100111 +
b000101 .
b100011 1
12
#62
#63
#64
#65
#66
02
#67
#68
#69
#70
#71
0$
b101 )
b100101 +
b000110 .
b100111 1
12
#72
#73
#74
#75
#76
02
#77
#78
#79
#80
#81
0#
b100 )
b100100 +
b000111 .
b100101 1
12
#82
#83
#84
#85
#86
02
#87
#88
#89
#90
#91
1$
0%
1'
0(
b010 )
b010 *
b010010 +
b001000 .
b100100 1
12
#92
#93
#94
#95
#96
02
#97
#98
#99
#100
#101
1#
0$
1&
0'
b001 )
b001 *
b001001 +
b001001 .
b010010 1
12
#102
#103
#104
#105
#106
02
#107
#108
#109
#110
#111
0#
1$
0&
1'
1(
b010 )
b110 *
b110010 +
b001010 .
b001001 1
12
#112
#113
#114
#115
#116
02
#117
#118
#119
#120
#121
1#
0$
1&
0(
b001 )
b011 *
b011001 +
b001011 .
b110010 1
12
#122
#123
#124
#125
#126
02
#127
#128
#129
#130
#131
0#
1$
1(
b010 )
b111 *
b111010 +
b001100 .
b011001 1
12
#132
#133
#134
#135
#136
02
#137
#138
#139
#140
#141
1#
0$
1%
0(
b101 )
b011 *
b011101 +
b001101 .
b111010 1
12
#142
#143
#144
#145
#146
02
#147
#148
#149
#150
#151
0#
0%
1(
b000 )
b111 *
b111000 +
b001110 .
b011101 1
12
#152
#153
#154
#155
#156
02
#157
#158
#159
#160
#161
1%
0(
b100 )
b011 *
b011100 +
b001111 .
b111000 1
12
#162
#163
#164
#165
#166
02
#167
#168
#169
#170
#171
1$
0'
b110 )
b001 *
b001110 +
b010000 .
b011100 1
12
#172
#173
#174
#175
#176
02
#177
#178
#179
#180
#181
1#
0&
b111 )
b000 *
b000111 +
b010001 .
b001110 1
12
#182
#183
#184
#185
#186
02
#187
#188
#189
#190
#191
0$
1'
1(
b101 )
b110 *
b110101 +
b010010 .
b000111 1
12
#192
#193
#194
#195
#196
02
#197
#198
#199
#200
#201
0#
1&
0'
b100 )
b101 *
b101100 +
b010011 .
b110101 1
12
#202
#203
#204
#205
#206
02
#207
#208
#209
#210
#211
1$
0&
1'
0(
b110 )
b010 *
b010110 +
b010100 .
b101100 1
12
#212
#213
#214
#215
#216
02
#217
#218
#219
#220
#221
1#
0%
1&
0'
b011 )
b001 *
b001011 +
b010101 .
b010110 1
12
#222
#223
#224
#225
#226
02
#227
#228
#229
#230
#231
0&
1'
1(
b110 *
b110011 +
b010110 .
b001011 1
12
#232
#233
#234
#235
#236
02
#237
#238
#239
#240
#241
1%
1&
0'
b111 )
b101 *
b101111 +
b010111 .
b110011 1
12
#242
#243
#244
#245
#246
02
#247
#248
#249
#250
#251
0$
0%
0&
b001 )
b100 *
b100001 +
b011000 .
b101111 1
12
#252
#253
#254
#255
#256
02
#257
#258
#259
#260
#261
0#
1$
1%
b110 )
b100110 +
b011001 .
b100001 1
12
#262
#263
#264
#265
#266
02
#267
#268
#269
#270
#271
1#
0%
1'
0(
b011 )
b010 *
b010011 +
b011010 .
b100110 1
12
#272
#273
#274
#275
#276
02
#277
#278
#279
#280
#281
1%
1&
1(
b111 )
b111 *
b111111 +
b011011 .
b010011 1
12
#282
#283
#284
#285
#286
02
#287
#288
#289
#290
#291
0$
0%
0'
b001 )
b101 *
b101001 +
b011100 .
b111111 1
12
#292
#293
#294
#295
#296
02
#297
#298
#299
#300
#301
0#
1$
0&
b010 )
b100 *
b100010 +
b011101 .
b101001 1
12
#302
#303
#304
#305
#306
02
#307
#308
#309
#310
#311
1#
0$
1'
0(
b001 )
b010 *
b010001 +
b011110 .
b100010 1
12
#312
#313
#314
#315
#316
02
#317
#318
#319
#320
#321
0#
1$
1%
1&
1(
b110 )
b111 *
b111110 +
b011111 .
b010001 1
12
#322
#323
#324
#325
#326
02
#327
#328
#329
#330
#331
1#
0(
b111 )
b011 *
b011111 +
b100000 .
b111110 1
12
#332
#333
#334
#335
#336
02
#337
#338
#339
#340
#341
0$
0%
1(
b001 )
b111 *
b111001 +
b100001 .
b011111 1
12
#342
#343
#344
#345
#346
02
#347
#348
#349
#350
#351
0#
1$
0'
b010 )
b101 *
b101010 +
b100010 .
b111001 1
12
#352
#353
#354
#355
#356
02
#357
#358
#359
#360
#361
1#
0$
1%
0&
1'
0(
b101 )
b010 *
b010101 +
b100011 .
b101010 1
12
#362
#363
#364
#365
#366
02
#367
#368
#369
#370
#371
0#
1&
1(
b100 )
b111 *
b111100 +
b100100 .
b010101 1
12
#372
#373
#374
#375
#376
02
#377
#378
#379
#380
#381
1$
0(
b110 )
b011 *
b011110 +
b100101 .
b111100 1
12
#382
#383
#384
#385
#386
02
#387
#388
#389
#390
#391
1#
0'
b111 )
b001 *
b001111 +
b100110 .
b011110 1
12
#392
#393
#394
#395
#396
02
#397
#398
#399
#400
#401
0$
0%
0&
1'
1(
b001 )
b110 *
b110001 +
b100111 .
b001111 1
12
#402
#403
#404
#405
#406
02
#407
#408
#409
#410
#411
0#
1$
1%
1&
0'
b110 )
b101 *
b101110 +
b101000 .
b110001 1
12
#412
#413
#414
#415
#416
02
#417
#418
#419
#420
#421
1#
0&
1'
0(
b111 )
b010 *
b010111 +
b101001 .
b101110 1
12
#422
#423
#424
#425
#426
02
#427
#428
#429
#430
#431
0$
1&
1(
b101 )
b111 *
b111101 +
b101010 .
b010111 1
12
#432
#433
#434
#435
#436
02
#437
#438
#439
#440
#441
0#
0%
0'
b000 )
b101 *
b101000 +
b101011 .
b111101 1
12
#442
#443
#444
#445
#446
02
#447
#448
#449
#450
#451
1%
0&
1'
0(
b100 )
b010 *
b010100 +
b101100 .
b101000 1
12
#452
#453
#454
#455
#456
02
#457
#458
#459
#460
#461
1$
0%
1&
0'
b010 )
b001 *
b001010 +
b101101 .
b010100 1
12
#462
#463
#464
#465
#466
02
#467
#468
#469
#470
#471
1#
0$
1%
0&
b101 )
b000 *
b000101 +
b101110 .
b001010 1
12
#472
#473
#474
#475
#476
02
#477
#478
#479
#480
#481
0#
1'
1(
b100 )
b110 *
b110100 +
b101111 .
b000101 1
12
#482
#483
#484
#485
#486
02
#487
#488
#489
#490
#491
1$
0%
1&
0(
b010 )
b011 *
b011010 +
b110000 .
b110100 1
12
#492
#493
#494
#495
#496
02
#497
#498
#499
#500
#501
1#
0$
1%
0'
b101 )
b001 *
b001101 +
b110001 .
b011010 1
12
#502
#503
#504
#505
#506
02
#507
#508
#509
#510
#511
0#
0%
0&
1'
1(
b000 )
b110 *
b110000 +
b110010 .
b001101 1
12
#512
#513
#514
#515
#516
02
#517
#518
#519
#520
#521
1&
0(
b011 *
b011000 +
b110011 .
b110000 1
12
#522
#523
#524
#525
#526
02
#527
#528
#529
#530
#531
1%
0'
b100 )
b001 *
b001100 +
b110100 .
b011000 1
12
#532
#533
#534
#535
#536
02
#537
#538
#539
#540
#541
1$
0&
b110 )
b000 *
b000110 +
b110101 .
b001100 1
12
#542
#543
#544
#545
#546
02
#547
#548
#549
#550
#551
1#
0%
b011 )
b000011 +
b110110 .
b000110 1
12
#552
#553
#554
#555
#556
02
#557
#558
#559
#560
#561
1%
1'
1(
b111 )
b110 *
b110111 +
b110111 .
b000011 1
12
#562
#563
#564
#565
#566
02
#567
#568
#569
#570
#571
0$
1&
0'
b101 )
b101 *
b101101 +
b111000 .
b110111 1
12
#572
#573
#574
#575
#576
02
#577
#578
#579
#580
#581
0#
0%
0&
b000 )
b100 *
b100000 +
b111001 .
b101101 1
12
#582
#583
#584
#585
#586
02
#587
#588
#589
#590
#591
1'
0(
b010 *
b010000 +
b111010 .
b100000 1
12
#592
#593
#594
#595
#596
02
#597
#598
#599
#600
#601
1&
0'
b001 *
b001000 +
b111011 .
b010000 1
12
#602
#603
#604
#605
#606
02
#607
#608
#609
#610
#611
1%
0&
b100 )
b000 *
b000100 +
b111100 .
b001000 1
12
#612
#613
#614
#615
#616
02
#617
#618
#619
#620
#621
1$
0%
b010 )
b000010 +
b111101 .
b000100 1
12
#622
#623
#624
#625
#626
02
#627
#628
#629
#630
#631
1#
0$
b001 )
b000001 +
b111110 .
1/
10
b000010 1
12
