test_run_dir/ThingsPassThroughTester/202107052142197283758965377116645/dump.vcd
$version Generated by VerilatedVcd $end
$date Mon Jul  5 21:42:21 2021 $end
$timescale 1ps $end

 $scope module TOP $end
  $var wire  1 K clock $end
  $var wire  1 L reset $end
  $scope module ThingsPassThroughTester $end
   $var wire  1 K clock $end
   $var wire  1 K q_clock $end
   $var wire  2 ( q_io_deq_bits [1:0] $end
   $var wire  1 & q_io_deq_ready $end
   $var wire  8 ; q_io_deq_ready_lo [7:0] $end
   $var wire  1 K q_io_deq_ready_prng_clock $end
   $var wire  1 ) q_io_deq_ready_prng_io_out_0 $end
   $var wire  1 * q_io_deq_ready_prng_io_out_1 $end
   $var wire  1 3 q_io_deq_ready_prng_io_out_10 $end
   $var wire  1 4 q_io_deq_ready_prng_io_out_11 $end
   $var wire  1 5 q_io_deq_ready_prng_io_out_12 $end
   $var wire  1 6 q_io_deq_ready_prng_io_out_13 $end
   $var wire  1 7 q_io_deq_ready_prng_io_out_14 $end
   $var wire  1 8 q_io_deq_ready_prng_io_out_15 $end
   $var wire  1 + q_io_deq_ready_prng_io_out_2 $end
   $var wire  1 , q_io_deq_ready_prng_io_out_3 $end
   $var wire  1 - q_io_deq_ready_prng_io_out_4 $end
   $var wire  1 . q_io_deq_ready_prng_io_out_5 $end
   $var wire  1 / q_io_deq_ready_prng_io_out_6 $end
   $var wire  1 0 q_io_deq_ready_prng_io_out_7 $end
   $var wire  1 1 q_io_deq_ready_prng_io_out_8 $end
   $var wire  1 2 q_io_deq_ready_prng_io_out_9 $end
   $var wire  1 L q_io_deq_ready_prng_reset $end
   $var wire  1 ' q_io_deq_valid $end
   $var wire  2 % q_io_enq_bits [1:0] $end
   $var wire  1 # q_io_enq_ready $end
   $var wire  1 $ q_io_enq_valid $end
   $var wire  1 L q_reset $end
   $var wire  1 L reset $end
   $var wire  5 9 value [4:0] $end
   $var wire  5 : value_1 [4:0] $end
   $var wire  1 < wrap $end
   $var wire  1 = wrap_1 $end
   $scope module q $end
    $var wire  1 K clock $end
    $var wire  2 B deq_ptr_value [1:0] $end
    $var wire  1 J do_deq $end
    $var wire  1 I do_enq $end
    $var wire  1 G empty $end
    $var wire  2 C enq_ptr_value [1:0] $end
    $var wire  1 H full $end
    $var wire  2 ( io_deq_bits [1:0] $end
    $var wire  1 & io_deq_ready $end
    $var wire  1 ' io_deq_valid $end
    $var wire  2 % io_enq_bits [1:0] $end
    $var wire  1 # io_enq_ready $end
    $var wire  1 $ io_enq_valid $end
    $var wire  1 E maybe_full $end
    $var wire  1 F ptr_match $end
    $var wire  2 > ram(0) [1:0] $end
    $var wire  2 ? ram(1) [1:0] $end
    $var wire  2 @ ram(2) [1:0] $end
    $var wire  2 A ram(3) [1:0] $end
    $var wire  2 C ram_MPORT_addr [1:0] $end
    $var wire  2 % ram_MPORT_data [1:0] $end
    $var wire  1 D ram_MPORT_en $end
    $var wire  1 M ram_MPORT_mask $end
    $var wire  2 B ram_io_deq_bits_MPORT_addr [1:0] $end
    $var wire  2 ( ram_io_deq_bits_MPORT_data [1:0] $end
    $var wire  1 M ram_io_deq_bits_MPORT_en $end
    $var wire  1 L reset $end
   $upscope $end
   $scope module q_io_deq_ready_prng $end
    $var wire  1 K clock $end
    $var wire  1 ) io_out_0 $end
    $var wire  1 * io_out_1 $end
    $var wire  1 3 io_out_10 $end
    $var wire  1 4 io_out_11 $end
    $var wire  1 5 io_out_12 $end
    $var wire  1 6 io_out_13 $end
    $var wire  1 7 io_out_14 $end
    $var wire  1 8 io_out_15 $end
    $var wire  1 + io_out_2 $end
    $var wire  1 , io_out_3 $end
    $var wire  1 - io_out_4 $end
    $var wire  1 . io_out_5 $end
    $var wire  1 / io_out_6 $end
    $var wire  1 0 io_out_7 $end
    $var wire  1 1 io_out_8 $end
    $var wire  1 2 io_out_9 $end
    $var wire  1 L reset $end
    $var wire  1 ) state_0 $end
    $var wire  1 * state_1 $end
    $var wire  1 3 state_10 $end
    $var wire  1 4 state_11 $end
    $var wire  1 5 state_12 $end
    $var wire  1 6 state_13 $end
    $var wire  1 7 state_14 $end
    $var wire  1 8 state_15 $end
    $var wire  1 + state_2 $end
    $var wire  1 , state_3 $end
    $var wire  1 - state_4 $end
    $var wire  1 . state_5 $end
    $var wire  1 / state_6 $end
    $var wire  1 0 state_7 $end
    $var wire  1 1 state_8 $end
    $var wire  1 2 state_9 $end
   $upscope $end
  $upscope $end
 $upscope $end
$enddefinitions $end


#0
1#
1$
b01 %
0&
0'
b00 (
0)
0*
0+
0,
0-
0.
0/
00
01
02
03
04
05
06
07
08
b00000 9
b00000 :
b00000000 ;
0<
0=
b00 >
b00 ?
b00 @
b00 A
b00 B
b00 C
1D
0E
1F
1G
0H
1I
0J
0K
1L
1M
#1
b01 (
1)
b00000001 ;
b01 >
1K
#2
#3
#4
#5
#6
0K
#7
#8
#9
#10
0L
#11
b10 %
1'
0)
1*
b00001 9
b00000010 ;
b01 C
1E
0F
0G
1K
#12
#13
#14
#15
#16
0K
#17
#18
#19
#20
#21
b00 %
0*
1+
b00010 9
b00000100 ;
b10 ?
b10 C
1K
#22
#23
#24
#25
#26
0K
#27
#28
#29
#30
#31
b01 %
0+
1,
b00011 9
b00001000 ;
b11 C
1K
#32
#33
#34
#35
#36
0K
#37
#38
#39
#40
#41
0#
b00 %
0,
1-
b00100 9
b00010000 ;
b01 A
b00 C
0D
1F
1H
0I
1K
#42
#43
#44
#45
#46
0K
#47
#48
#49
#50
#51
0-
1.
b00100000 ;
1K
#52
#53
#54
#55
#56
0K
#57
#58
#59
#60
#61
0.
1/
b01000000 ;
1K
#62
#63
#64
#65
#66
0K
#67
#68
#69
#70
#71
0/
10
b10000000 ;
1K
#72
#73
#74
#75
#76
0K
#77
#78
#79
#80
#81
00
11
b00000000 ;
1K
#82
#83
#84
#85
#86
0K
#87
#88
#89
#90
#91
01
12
1K
#92
#93
#94
#95
#96
0K
#97
#98
#99
#100
#101
02
13
1K
#102
#103
#104
#105
#106
0K
#107
#108
#109
#110
#111
1)
03
14
b00000001 ;
1K
#112
#113
#114
#115
#116
0K
#117
#118
#119
#120
#121
0)
1*
04
15
b00000010 ;
1K
#122
#123
#124
#125
#126
0K
#127
#128
#129
#130
#131
1&
1)
0*
1+
05
16
b00000101 ;
1J
1K
#132
#133
#134
#135
#136
0K
#137
#138
#139
#140
#141
1#
0&
b10 (
1*
0+
1,
06
17
b00001 :
b00001011 ;
b01 B
1D
0E
0F
0H
1I
0J
1K
#142
#143
#144
#145
#146
0K
#147
#148
#149
#150
#151
0#
b10 %
0)
1+
0,
1-
07
18
b00101 9
b00010110 ;
b00 >
b01 C
0D
1E
1F
1H
0I
1K
#152
#153
#154
#155
#156
0K
#157
#158
#159
#160
#161
1)
0*
1,
0-
1.
08
b00101101 ;
1K
#162
#163
#164
#165
#166
0K
#167
#168
#169
#170
#171
0)
1*
0+
1-
0.
1/
b01011010 ;
1K
#172
#173
#174
#175
#176
0K
#177
#178
#179
#180
#181
0*
1+
0,
1.
0/
10
b10110100 ;
1K
#182
#183
#184
#185
#186
0K
#187
#188
#189
#190
#191
0+
1,
0-
1/
00
11
b01101000 ;
1K
#192
#193
#194
#195
#196
0K
#197
#198
#199
#200
#201
0,
1-
0.
10
01
12
b11010000 ;
1K
#202
#203
#204
#205
#206
0K
#207
#208
#209
#210
#211
0-
1.
0/
11
02
13
b10100000 ;
1K
#212
#213
#214
#215
#216
0K
#217
#218
#219
#220
#221
1)
0.
1/
00
12
03
14
b01000001 ;
1K
#222
#223
#224
#225
#226
0K
#227
#228
#229
#230
#231
0)
1*
0/
10
01
13
04
15
b10000010 ;
1K
#232
#233
#234
#235
#236
0K
#237
#238
#239
#240
#241
1&
0*
1+
00
11
02
14
05
16
b00000100 ;
1J
1K
#242
#243
#244
#245
#246
0K
#247
#248
#249
#250
#251
1#
0&
b00 (
0+
1,
01
12
03
15
06
17
b00010 :
b00001000 ;
b10 B
1D
0E
0F
0H
1I
0J
1K
#252
#253
#254
#255
#256
0K
#257
#258
#259
#260
#261
0#
b01 %
1&
1)
0,
1-
02
13
04
16
07
18
b00110 9
b00010001 ;
b10 C
0D
1E
1F
1H
0I
1J
1K
#262
#263
#264
#265
#266
0K
#267
#268
#269
#270
#271
1#
b01 (
0)
1*
0-
1.
03
14
05
17
08
b00011 :
b00100010 ;
b11 B
1D
0E
0F
0H
1I
1K
#272
#273
#274
#275
#276
0K
#277
#278
#279
#280
#281
0&
b00 (
1)
0*
1+
0.
1/
04
15
06
18
b00111 9
b00100 :
b01000101 ;
b01 @
b00 B
b11 C
0J
1K
#282
#283
#284
#285
#286
0K
#287
#288
#289
#290
#291
0#
b10 %
1&
0)
1*
0+
1,
0/
10
05
16
07
b01000 9
b10001010 ;
b00 C
0D
1E
1F
1H
0I
1J
1K
#292
#293
#294
#295
#296
0K
#297
#298
#299
#300
#301
1#
0&
b10 (
0*
1+
0,
1-
00
11
06
17
08
b00101 :
b00010100 ;
b01 B
1D
0E
0F
0H
1I
0J
1K
#302
#303
#304
#305
#306
0K
#307
#308
#309
#310
#311
0#
b00 %
0+
1,
0-
1.
01
12
07
18
b01001 9
b00101000 ;
b10 >
b01 C
0D
1E
1F
1H
0I
1K
#312
#313
#314
#315
#316
0K
#317
#318
#319
#320
#321
1)
0,
1-
0.
1/
02
13
08
b01010001 ;
1K
#322
#323
#324
#325
#326
0K
#327
#328
#329
#330
#331
1*
0-
1.
0/
10
03
14
b10100011 ;
1K
#332
#333
#334
#335
#336
0K
#337
#338
#339
#340
#341
0)
1+
0.
1/
00
11
04
15
b01000110 ;
1K
#342
#343
#344
#345
#346
0K
#347
#348
#349
#350
#351
1&
1)
0*
1,
0/
10
01
12
05
16
b10001101 ;
1J
1K
#352
#353
#354
#355
#356
0K
#357
#358
#359
#360
#361
1#
0&
b01 (
1*
0+
1-
00
11
02
13
06
17
b00110 :
b00011011 ;
b10 B
1D
0E
0F
0H
1I
0J
1K
#362
#363
#364
#365
#366
0K
#367
#368
#369
#370
#371
0#
b10 %
1+
0,
1.
01
12
03
14
07
18
b01010 9
b00110111 ;
b00 ?
b10 C
0D
1E
1F
1H
0I
1K
#372
#373
#374
#375
#376
0K
#377
#378
#379
#380
#381
1,
0-
1/
02
13
04
15
08
b01101111 ;
1K
#382
#383
#384
#385
#386
0K
#387
#388
#389
#390
#391
1&
0)
1-
0.
10
03
14
05
16
b11011110 ;
1J
1K
#392
#393
#394
#395
#396
0K
#397
#398
#399
#400
#401
1#
0&
1)
0*
1.
0/
11
04
15
06
17
b00111 :
b10111101 ;
b11 B
1D
0E
0F
0H
1I
0J
1K
#402
#403
#404
#405
#406
0K
#407
#408
#409
#410
#411
0#
b00 %
1&
1*
0+
1/
00
12
05
16
07
18
b01011 9
b01111011 ;
b10 @
b11 C
0D
1E
1F
1H
0I
1J
1K
#412
#413
#414
#415
#416
0K
#417
#418
#419
#420
#421
1#
0&
b10 (
0)
1+
0,
10
01
13
06
17
08
b01000 :
b11110110 ;
b00 B
1D
0E
0F
0H
1I
0J
1K
#422
#423
#424
#425
#426
0K
#427
#428
#429
#430
#431
0#
b01 %
1)
0*
1,
0-
11
02
14
07
18
b01100 9
b11101101 ;
b00 A
b00 C
0D
1E
1F
1H
0I
1K
#432
#433
#434
#435
#436
0K
#437
#438
#439
#440
#441
0)
1*
0+
1-
0.
12
03
15
08
b11011010 ;
1K
#442
#443
#444
#445
#446
0K
#447
#448
#449
#450
#451
1&
1)
0*
1+
0,
1.
0/
13
04
16
b10110101 ;
1J
1K
#452
#453
#454
#455
#456
0K
#457
#458
#459
#460
#461
1#
b00 (
1*
0+
1,
0-
1/
00
14
05
17
b01001 :
b01101011 ;
b01 B
1D
0E
0F
0H
1I
1K
#462
#463
#464
#465
#466
0K
#467
#468
#469
#470
#471
0&
b10 (
0)
1+
0,
1-
0.
10
01
15
06
18
b01101 9
b01010 :
b11010110 ;
b01 >
b10 B
b01 C
0J
1K
#472
#473
#474
#475
#476
0K
#477
#478
#479
#480
#481
0#
b10 %
1&
1)
0*
1,
0-
1.
0/
11
02
16
07
b01110 9
b10101101 ;
b01 ?
b10 C
0D
1E
1F
1H
0I
1J
1K
#482
#483
#484
#485
#486
0K
#487
#488
#489
#490
#491
1#
b00 (
0)
1*
0+
1-
0.
1/
00
12
03
17
08
b01011 :
b01011010 ;
b11 B
1D
0E
0F
0H
1I
1K
#492
#493
#494
#495
#496
0K
#497
#498
#499
#500
#501
b11 %
b01 (
0*
1+
0,
1.
0/
10
01
13
04
18
b01111 9
b01100 :
b10110100 ;
b00 B
b11 C
1K
#502
#503
#504
#505
#506
0K
#507
#508
#509
#510
#511
b10 %
0+
1,
0-
1/
00
11
02
14
05
b10000 9
b01101 :
b01101000 ;
b11 A
b01 B
b00 C
1K
#512
#513
#514
#515
#516
0K
#517
#518
#519
#520
#521
b01 %
0&
b10 (
1)
0,
1-
0.
10
01
12
03
15
06
b10001 9
b01110 :
b11010001 ;
b10 >
b10 B
b01 C
0J
1K
#522
#523
#524
#525
#526
0K
#527
#528
#529
#530
#531
0#
b10 %
1&
0)
1*
0-
1.
0/
11
02
13
04
16
07
b10010 9
b10100010 ;
b10 C
0D
1E
1F
1H
0I
1J
1K
#532
#533
#534
#535
#536
0K
#537
#538
#539
#540
#541
1#
b11 (
0*
1+
0.
1/
00
12
03
14
05
17
08
b01111 :
b01000100 ;
b11 B
1D
0E
0F
0H
1I
1K
#542
#543
#544
#545
#546
0K
#547
#548
#549
#550
#551
b11 %
0&
b10 (
1)
0+
1,
0/
10
01
13
04
15
06
18
b10011 9
b10000 :
b10001001 ;
b00 B
b11 C
0J
1K
#552
#553
#554
#555
#556
0K
#557
#558
#559
#560
#561
0#
0$
b01 %
1&
1*
0,
1-
00
11
02
14
05
16
07
b10100 9
b00010011 ;
1<
b00 C
0D
1E
1F
1H
0I
1J
1K
#562
#563
#564
#565
#566
0K
#567
#568
#569
#570
#571
1#
0&
b01 (
1+
0-
1.
01
12
03
15
06
17
08
b10001 :
b00100111 ;
b01 B
0E
0F
0H
0J
1K
#572
#573
#574
#575
#576
0K
#577
#578
#579
#580
#581
1&
1,
0.
1/
02
13
04
16
07
18
b01001111 ;
1J
1K
#582
#583
#584
#585
#586
0K
#587
#588
#589
#590
#591
b10 (
0)
1-
0/
10
03
14
05
17
08
b10010 :
b10011110 ;
b10 B
1K
#592
#593
#594
#595
#596
0K
#597
#598
#599
#600
#601
0&
b11 (
1)
0*
1.
00
11
04
15
06
18
b10011 :
b00111101 ;
b11 B
0J
1K
#602
#603
#604
#605
#606
0K
#607
#608
#609
#610
#611
1&
0)
1*
0+
1/
01
12
05
16
07
b01111010 ;
1J
1K
#612
#613
#614
#615
#616
0K
#617
#618
#619
#620
#621
0&
0'
b10 (
0*
1+
0,
10
02
13
06
17
08
b10100 :
b11110100 ;
1=
b00 B
1F
1G
0J
1K
