test_run_dir/LFSRMaxPeriod/202107052136302866255555233474607/dump.vcd
$version Generated by VerilatedVcd $end
$date Mon Jul  5 21:36:32 2021 $end
$timescale 1ps $end

 $scope module TOP $end
  $var wire  1 7 clock $end
  $var wire  1 8 reset $end
  $scope module LFSRMaxPeriod $end
   $var wire  1 7 clock $end
   $var wire 11 6 last [10:0] $end
   $var wire  1 8 reset $end
   $var wire 11 0 rv [10:0] $end
   $var wire  6 / rv_hi [5:0] $end
   $var wire  5 . rv_lo [4:0] $end
   $var wire  1 7 rv_prng_clock $end
   $var wire  1 # rv_prng_io_out_0 $end
   $var wire  1 $ rv_prng_io_out_1 $end
   $var wire  1 - rv_prng_io_out_10 $end
   $var wire  1 % rv_prng_io_out_2 $end
   $var wire  1 & rv_prng_io_out_3 $end
   $var wire  1 ' rv_prng_io_out_4 $end
   $var wire  1 ( rv_prng_io_out_5 $end
   $var wire  1 ) rv_prng_io_out_6 $end
   $var wire  1 * rv_prng_io_out_7 $end
   $var wire  1 + rv_prng_io_out_8 $end
   $var wire  1 , rv_prng_io_out_9 $end
   $var wire  1 8 rv_prng_reset $end
   $var wire 11 2 seed [10:0] $end
   $var wire  1 1 started $end
   $var wire  1 5 wrap $end
   $var wire 11 3 wrap_value [10:0] $end
   $var wire  1 4 wrap_wrap_wrap $end
   $scope module rv_prng $end
    $var wire  1 7 clock $end
    $var wire  1 # io_out_0 $end
    $var wire  1 $ io_out_1 $end
    $var wire  1 - io_out_10 $end
    $var wire  1 % io_out_2 $end
    $var wire  1 & io_out_3 $end
    $var wire  1 ' io_out_4 $end
    $var wire  1 ( io_out_5 $end
    $var wire  1 ) io_out_6 $end
    $var wire  1 * io_out_7 $end
    $var wire  1 + io_out_8 $end
    $var wire  1 , io_out_9 $end
    $var wire  1 8 reset $end
    $var wire  1 # state_0 $end
    $var wire  1 $ state_1 $end
    $var wire  1 - state_10 $end
    $var wire  1 % state_2 $end
    $var wire  1 & state_3 $end
    $var wire  1 ' state_4 $end
    $var wire  1 ( state_5 $end
    $var wire  1 ) state_6 $end
    $var wire  1 * state_7 $end
    $var wire  1 + state_8 $end
    $var wire  1 , state_9 $end
   $upscope $end
  $upscope $end
 $upscope $end
$enddefinitions $end


#0
0#
0$
0%
0&
0'
0(
0)
0*
0+
0,
0-
b00000 .
b000000 /
b00000000000 0
01
b00000000000 2
b00000000000 3
04
05
b00000000000 6
07
18
#1
1#
b00001 .
b00000000001 0
17
#2
#3
#4
#5
#6
07
#7
#8
#9
#10
08
#11
0#
1$
b00010 .
b00000000010 0
11
b00000000001 2
b00000000001 6
17
#12
#13
#14
#15
#16
07
#17
#18
#19
#20
#21
0$
1%
b00100 .
b00000000100 0
b00000000001 3
b00000000010 6
17
#22
#23
#24
#25
#26
07
#27
#28
#29
#30
#31
0%
1&
b01000 .
b00000001000 0
b00000000010 3
b00000000100 6
17
#32
#33
#34
#35
#36
07
#37
#38
#39
#40
#41
0&
1'
b10000 .
b00000010000 0
b00000000011 3
b00000001000 6
17
#42
#43
#44
#45
#46
07
#47
#48
#49
#50
#51
0'
1(
b00000 .
b000001 /
b00000100000 0
b00000000100 3
b00000010000 6
17
#52
#53
#54
#55
#56
07
#57
#58
#59
#60
#61
0(
1)
b000010 /
b00001000000 0
b00000000101 3
b00000100000 6
17
#62
#63
#64
#65
#66
07
#67
#68
#69
#70
#71
0)
1*
b000100 /
b00010000000 0
b00000000110 3
b00001000000 6
17
#72
#73
#74
#75
#76
07
#77
#78
#79
#80
#81
0*
1+
b001000 /
b00100000000 0
b00000000111 3
b00010000000 6
17
#82
#83
#84
#85
#86
07
#87
#88
#89
#90
#91
1#
0+
1,
b00001 .
b010000 /
b01000000001 0
b00000001000 3
b00100000000 6
17
#92
#93
#94
#95
#96
07
#97
#98
#99
#100
#101
0#
1$
0,
1-
b00010 .
b100000 /
b10000000010 0
b00000001001 3
b01000000001 6
17
#102
#103
#104
#105
#106
07
#107
#108
#109
#110
#111
1#
0$
1%
0-
b00101 .
b000000 /
b00000000101 0
b00000001010 3
b10000000010 6
17
#112
#113
#114
#115
#116
07
#117
#118
#119
#120
#121
0#
1$
0%
1&
b01010 .
b00000001010 0
b00000001011 3
b00000000101 6
17
#122
#123
#124
#125
#126
07
#127
#128
#129
#130
#131
0$
1%
0&
1'
b10100 .
b00000010100 0
b00000001100 3
b00000001010 6
17
#132
#133
#134
#135
#136
07
#137
#138
#139
#140
#141
0%
1&
0'
1(
b01000 .
b000001 /
b00000101000 0
b00000001101 3
b00000010100 6
17
#142
#143
#144
#145
#146
07
#147
#148
#149
#150
#151
0&
1'
0(
1)
b10000 .
b000010 /
b00001010000 0
b00000001110 3
b00000101000 6
17
#152
#153
#154
#155
#156
07
#157
#158
#159
#160
#161
0'
1(
0)
1*
b00000 .
b000101 /
b00010100000 0
b00000001111 3
b00001010000 6
17
#162
#163
#164
#165
#166
07
#167
#168
#169
#170
#171
0(
1)
0*
1+
b001010 /
b00101000000 0
b00000010000 3
b00010100000 6
17
#172
#173
#174
#175
#176
07
#177
#178
#179
#180
#181
1#
0)
1*
0+
1,
b00001 .
b010100 /
b01010000001 0
b00000010001 3
b00101000000 6
17
#182
#183
#184
#185
#186
07
#187
#188
#189
#190
#191
0#
1$
0*
1+
0,
1-
b00010 .
b101000 /
b10100000010 0
b00000010010 3
b01010000001 6
17
#192
#193
#194
#195
#196
07
#197
#198
#199
#200
#201
0$
1%
0+
1,
0-
b00100 .
b010000 /
b01000000100 0
b00000010011 3
b10100000010 6
17
#202
#203
#204
#205
#206
07
#207
#208
#209
#210
#211
0%
1&
0,
1-
b01000 .
b100000 /
b10000001000 0
b00000010100 3
b01000000100 6
17
#212
#213
#214
#215
#216
07
#217
#218
#219
#220
#221
1#
0&
1'
0-
b10001 .
b000000 /
b00000010001 0
b00000010101 3
b10000001000 6
17
#222
#223
#224
#225
#226
07
#227
#228
#229
#230
#231
0#
1$
0'
1(
b00010 .
b000001 /
b00000100010 0
b00000010110 3
b00000010001 6
17
#232
#233
#234
#235
#236
07
#237
#238
#239
#240
#241
0$
1%
0(
1)
b00100 .
b000010 /
b00001000100 0
b00000010111 3
b00000100010 6
17
#242
#243
#244
#245
#246
07
#247
#248
#249
#250
#251
0%
1&
0)
1*
b01000 .
b000100 /
b00010001000 0
b00000011000 3
b00001000100 6
17
#252
#253
#254
#255
#256
07
#257
#258
#259
#260
#261
0&
1'
0*
1+
b10000 .
b001000 /
b00100010000 0
b00000011001 3
b00010001000 6
17
#262
#263
#264
#265
#266
07
#267
#268
#269
#270
#271
1#
0'
1(
0+
1,
b00001 .
b010001 /
b01000100001 0
b00000011010 3
b00100010000 6
17
#272
#273
#274
#275
#276
07
#277
#278
#279
#280
#281
0#
1$
0(
1)
0,
1-
b00010 .
b100010 /
b10001000010 0
b00000011011 3
b01000100001 6
17
#282
#283
#284
#285
#286
07
#287
#288
#289
#290
#291
1#
0$
1%
0)
1*
0-
b00101 .
b000100 /
b00010000101 0
b00000011100 3
b10001000010 6
17
#292
#293
#294
#295
#296
07
#297
#298
#299
#300
#301
0#
1$
0%
1&
0*
1+
b01010 .
b001000 /
b00100001010 0
b00000011101 3
b00010000101 6
17
#302
#303
#304
#305
#306
07
#307
#308
#309
#310
#311
1#
0$
1%
0&
1'
0+
1,
b10101 .
b010000 /
b01000010101 0
b00000011110 3
b00100001010 6
17
#312
#313
#314
#315
#316
07
#317
#318
#319
#320
#321
0#
1$
0%
1&
0'
1(
0,
1-
b01010 .
b100001 /
b10000101010 0
b00000011111 3
b01000010101 6
17
#322
#323
#324
#325
#326
07
#327
#328
#329
#330
#331
1#
0$
1%
0&
1'
0(
1)
0-
b10101 .
b000010 /
b00001010101 0
b00000100000 3
b10000101010 6
17
#332
#333
#334
#335
#336
07
#337
#338
#339
#340
#341
0#
1$
0%
1&
0'
1(
0)
1*
b01010 .
b000101 /
b00010101010 0
b00000100001 3
b00001010101 6
17
#342
#343
#344
#345
#346
07
#347
#348
#349
#350
#351
0$
1%
0&
1'
0(
1)
0*
1+
b10100 .
b001010 /
b00101010100 0
b00000100010 3
b00010101010 6
17
#352
#353
#354
#355
#356
07
#357
#358
#359
#360
#361
1#
0%
1&
0'
1(
0)
1*
0+
1,
b01001 .
b010101 /
b01010101001 0
b00000100011 3
b00101010100 6
17
#362
#363
#364
#365
#366
07
#367
#368
#369
#370
#371
0#
1$
0&
1'
0(
1)
0*
1+
0,
1-
b10010 .
b101010 /
b10101010010 0
b00000100100 3
b01010101001 6
17
#372
#373
#374
#375
#376
07
#377
#378
#379
#380
#381
0$
1%
0'
1(
0)
1*
0+
1,
0-
b00100 .
b010101 /
b01010100100 0
b00000100101 3
b10101010010 6
17
#382
#383
#384
#385
#386
07
#387
#388
#389
#390
#391
0%
1&
0(
1)
0*
1+
0,
1-
b01000 .
b101010 /
b10101001000 0
b00000100110 3
b01010100100 6
17
#392
#393
#394
#395
#396
07
#397
#398
#399
#400
#401
0&
1'
0)
1*
0+
1,
0-
b10000 .
b010100 /
b01010010000 0
b00000100111 3
b10101001000 6
17
#402
#403
#404
#405
#406
07
#407
#408
#409
#410
#411
0'
1(
0*
1+
0,
1-
b00000 .
b101001 /
b10100100000 0
b00000101000 3
b01010010000 6
17
#412
#413
#414
#415
#416
07
#417
#418
#419
#420
#421
0(
1)
0+
1,
0-
b010010 /
b01001000000 0
b00000101001 3
b10100100000 6
17
#422
#423
#424
#425
#426
07
#427
#428
#429
#430
#431
0)
1*
0,
1-
b100100 /
b10010000000 0
b00000101010 3
b01001000000 6
17
#432
#433
#434
#435
#436
07
#437
#438
#439
#440
#441
1#
0*
1+
0-
b00001 .
b001000 /
b00100000001 0
b00000101011 3
b10010000000 6
17
#442
#443
#444
#445
#446
07
#447
#448
#449
#450
#451
1$
0+
1,
b00011 .
b010000 /
b01000000011 0
b00000101100 3
b00100000001 6
17
#452
#453
#454
#455
#456
07
#457
#458
#459
#460
#461
0#
1%
0,
1-
b00110 .
b100000 /
b10000000110 0
b00000101101 3
b01000000011 6
17
#462
#463
#464
#465
#466
07
#467
#468
#469
#470
#471
1#
0$
1&
0-
b01101 .
b000000 /
b00000001101 0
b00000101110 3
b10000000110 6
17
#472
#473
#474
#475
#476
07
#477
#478
#479
#480
#481
0#
1$
0%
1'
b11010 .
b00000011010 0
b00000101111 3
b00000001101 6
17
#482
#483
#484
#485
#486
07
#487
#488
#489
#490
#491
0$
1%
0&
1(
b10100 .
b000001 /
b00000110100 0
b00000110000 3
b00000011010 6
17
#492
#493
#494
#495
#496
07
#497
#498
#499
#500
#501
0%
1&
0'
1)
b01000 .
b000011 /
b00001101000 0
b00000110001 3
b00000110100 6
17
#502
#503
#504
#505
#506
07
#507
#508
#509
#510
#511
0&
1'
0(
1*
b10000 .
b000110 /
b00011010000 0
b00000110010 3
b00001101000 6
17
#512
#513
#514
#515
#516
07
#517
#518
#519
#520
#521
0'
1(
0)
1+
b00000 .
b001101 /
b00110100000 0
b00000110011 3
b00011010000 6
17
#522
#523
#524
#525
#526
07
#527
#528
#529
#530
#531
1#
0(
1)
0*
1,
b00001 .
b011010 /
b01101000001 0
b00000110100 3
b00110100000 6
17
#532
#533
#534
#535
#536
07
#537
#538
#539
#540
#541
1$
0)
1*
0+
1-
b00011 .
b110100 /
b11010000011 0
b00000110101 3
b01101000001 6
17
#542
#543
#544
#545
#546
07
#547
#548
#549
#550
#551
1%
0*
1+
0,
b00111 .
b101000 /
b10100000111 0
b00000110110 3
b11010000011 6
17
#552
#553
#554
#555
#556
07
#557
#558
#559
#560
#561
0#
1&
0+
1,
0-
b01110 .
b010000 /
b01000001110 0
b00000110111 3
b10100000111 6
17
#562
#563
#564
#565
#566
07
#567
#568
#569
#570
#571
0$
1'
0,
1-
b11100 .
b100000 /
b10000011100 0
b00000111000 3
b01000001110 6
17
#572
#573
#574
#575
#576
07
#577
#578
#579
#580
#581
1#
0%
1(
0-
b11001 .
b000001 /
b00000111001 0
b00000111001 3
b10000011100 6
17
#582
#583
#584
#585
#586
07
#587
#588
#589
#590
#591
0#
1$
0&
1)
b10010 .
b000011 /
b00001110010 0
b00000111010 3
b00000111001 6
17
#592
#593
#594
#595
#596
07
#597
#598
#599
#600
#601
0$
1%
0'
1*
b00100 .
b000111 /
b00011100100 0
b00000111011 3
b00001110010 6
17
#602
#603
#604
#605
#606
07
#607
#608
#609
#610
#611
0%
1&
0(
1+
b01000 .
b001110 /
b00111001000 0
b00000111100 3
b00011100100 6
17
#612
#613
#614
#615
#616
07
#617
#618
#619
#620
#621
1#
0&
1'
0)
1,
b10001 .
b011100 /
b01110010001 0
b00000111101 3
b00111001000 6
17
#622
#623
#624
#625
#626
07
#627
#628
#629
#630
#631
1$
0'
1(
0*
1-
b00011 .
b111001 /
b11100100011 0
b00000111110 3
b01110010001 6
17
#632
#633
#634
#635
#636
07
#637
#638
#639
#640
#641
0#
1%
0(
1)
0+
b00110 .
b110010 /
b11001000110 0
b00000111111 3
b11100100011 6
17
#642
#643
#644
#645
#646
07
#647
#648
#649
#650
#651
1#
0$
1&
0)
1*
0,
b01101 .
b100100 /
b10010001101 0
b00001000000 3
b11001000110 6
17
#652
#653
#654
#655
#656
07
#657
#658
#659
#660
#661
1$
0%
1'
0*
1+
0-
b11011 .
b001000 /
b00100011011 0
b00001000001 3
b10010001101 6
17
#662
#663
#664
#665
#666
07
#667
#668
#669
#670
#671
1%
0&
1(
0+
1,
b10111 .
b010001 /
b01000110111 0
b00001000010 3
b00100011011 6
17
#672
#673
#674
#675
#676
07
#677
#678
#679
#680
#681
0#
1&
0'
1)
0,
1-
b01110 .
b100011 /
b10001101110 0
b00001000011 3
b01000110111 6
17
#682
#683
#684
#685
#686
07
#687
#688
#689
#690
#691
1#
0$
1'
0(
1*
0-
b11101 .
b000110 /
b00011011101 0
b00001000100 3
b10001101110 6
17
#692
#693
#694
#695
#696
07
#697
#698
#699
#700
#701
0#
1$
0%
1(
0)
1+
b11010 .
b001101 /
b00110111010 0
b00001000101 3
b00011011101 6
17
#702
#703
#704
#705
#706
07
#707
#708
#709
#710
#711
1#
0$
1%
0&
1)
0*
1,
b10101 .
b011011 /
b01101110101 0
b00001000110 3
b00110111010 6
17
#712
#713
#714
#715
#716
07
#717
#718
#719
#720
#721
1$
0%
1&
0'
1*
0+
1-
b01011 .
b110111 /
b11011101011 0
b00001000111 3
b01101110101 6
17
#722
#723
#724
#725
#726
07
#727
#728
#729
#730
#731
1%
0&
1'
0(
1+
0,
b10111 .
b101110 /
b10111010111 0
b00001001000 3
b11011101011 6
17
#732
#733
#734
#735
#736
07
#737
#738
#739
#740
#741
0#
1&
0'
1(
0)
1,
0-
b01110 .
b011101 /
b01110101110 0
b00001001001 3
b10111010111 6
17
#742
#743
#744
#745
#746
07
#747
#748
#749
#750
#751
1#
0$
1'
0(
1)
0*
1-
b11101 .
b111010 /
b11101011101 0
b00001001010 3
b01110101110 6
17
#752
#753
#754
#755
#756
07
#757
#758
#759
#760
#761
0#
1$
0%
1(
0)
1*
0+
b11010 .
b110101 /
b11010111010 0
b00001001011 3
b11101011101 6
17
#762
#763
#764
#765
#766
07
#767
#768
#769
#770
#771
1#
0$
1%
0&
1)
0*
1+
0,
b10101 .
b101011 /
b10101110101 0
b00001001100 3
b11010111010 6
17
#772
#773
#774
#775
#776
07
#777
#778
#779
#780
#781
0#
1$
0%
1&
0'
1*
0+
1,
0-
b01010 .
b010111 /
b01011101010 0
b00001001101 3
b10101110101 6
17
#782
#783
#784
#785
#786
07
#787
#788
#789
#790
#791
0$
1%
0&
1'
0(
1+
0,
1-
b10100 .
b101110 /
b10111010100 0
b00001001110 3
b01011101010 6
17
#792
#793
#794
#795
#796
07
#797
#798
#799
#800
#801
0%
1&
0'
1(
0)
1,
0-
b01000 .
b011101 /
b01110101000 0
b00001001111 3
b10111010100 6
17
#802
#803
#804
#805
#806
07
#807
#808
#809
#810
#811
1#
0&
1'
0(
1)
0*
1-
b10001 .
b111010 /
b11101010001 0
b00001010000 3
b01110101000 6
17
#812
#813
#814
#815
#816
07
#817
#818
#819
#820
#821
0#
1$
0'
1(
0)
1*
0+
b00010 .
b110101 /
b11010100010 0
b00001010001 3
b11101010001 6
17
#822
#823
#824
#825
#826
07
#827
#828
#829
#830
#831
1#
0$
1%
0(
1)
0*
1+
0,
b00101 .
b101010 /
b10101000101 0
b00001010010 3
b11010100010 6
17
#832
#833
#834
#835
#836
07
#837
#838
#839
#840
#841
0#
1$
0%
1&
0)
1*
0+
1,
0-
b01010 .
b010100 /
b01010001010 0
b00001010011 3
b10101000101 6
17
#842
#843
#844
#845
#846
07
#847
#848
#849
#850
#851
0$
1%
0&
1'
0*
1+
0,
1-
b10100 .
b101000 /
b10100010100 0
b00001010100 3
b01010001010 6
17
#852
#853
#854
#855
#856
07
#857
#858
#859
#860
#861
0%
1&
0'
1(
0+
1,
0-
b01000 .
b010001 /
b01000101000 0
b00001010101 3
b10100010100 6
17
#862
#863
#864
#865
#866
07
#867
#868
#869
#870
#871
0&
1'
0(
1)
0,
1-
b10000 .
b100010 /
b10001010000 0
b00001010110 3
b01000101000 6
17
#872
#873
#874
#875
#876
07
#877
#878
#879
#880
#881
1#
0'
1(
0)
1*
0-
b00001 .
b000101 /
b00010100001 0
b00001010111 3
b10001010000 6
17
#882
#883
#884
#885
#886
07
#887
#888
#889
#890
#891
0#
1$
0(
1)
0*
1+
b00010 .
b001010 /
b00101000010 0
b00001011000 3
b00010100001 6
17
#892
#893
#894
#895
#896
07
#897
#898
#899
#900
#901
1#
0$
1%
0)
1*
0+
1,
b00101 .
b010100 /
b01010000101 0
b00001011001 3
b00101000010 6
17
#902
#903
#904
#905
#906
07
#907
#908
#909
#910
#911
0#
1$
0%
1&
0*
1+
0,
1-
b01010 .
b101000 /
b10100001010 0
b00001011010 3
b01010000101 6
17
#912
#913
#914
#915
#916
07
#917
#918
#919
#920
#921
0$
1%
0&
1'
0+
1,
0-
b10100 .
b010000 /
b01000010100 0
b00001011011 3
b10100001010 6
17
#922
#923
#924
#925
#926
07
#927
#928
#929
#930
#931
0%
1&
0'
1(
0,
1-
b01000 .
b100001 /
b10000101000 0
b00001011100 3
b01000010100 6
17
#932
#933
#934
#935
#936
07
#937
#938
#939
#940
#941
1#
0&
1'
0(
1)
0-
b10001 .
b000010 /
b00001010001 0
b00001011101 3
b10000101000 6
17
#942
#943
#944
#945
#946
07
#947
#948
#949
#950
#951
0#
1$
0'
1(
0)
1*
b00010 .
b000101 /
b00010100010 0
b00001011110 3
b00001010001 6
17
#952
#953
#954
#955
#956
07
#957
#958
#959
#960
#961
0$
1%
0(
1)
0*
1+
b00100 .
b001010 /
b00101000100 0
b00001011111 3
b00010100010 6
17
#962
#963
#964
#965
#966
07
#967
#968
#969
#970
#971
1#
0%
1&
0)
1*
0+
1,
b01001 .
b010100 /
b01010001001 0
b00001100000 3
b00101000100 6
17
#972
#973
#974
#975
#976
07
#977
#978
#979
#980
#981
0#
1$
0&
1'
0*
1+
0,
1-
b10010 .
b101000 /
b10100010010 0
b00001100001 3
b01010001001 6
17
#982
#983
#984
#985
#986
07
#987
#988
#989
#990
#991
0$
1%
0'
1(
0+
1,
0-
b00100 .
b010001 /
b01000100100 0
b00001100010 3
b10100010010 6
17
#992
#993
#994
#995
#996
07
#997
#998
#999
#1000
#1001
0%
1&
0(
1)
0,
1-
b01000 .
b100010 /
b10001001000 0
b00001100011 3
b01000100100 6
17
#1002
#1003
#1004
#1005
#1006
07
#1007
#1008
#1009
#1010
#1011
1#
0&
1'
0)
1*
0-
b10001 .
b000100 /
b00010010001 0
b00001100100 3
b10001001000 6
17
#1012
#1013
#1014
#1015
#1016
07
#1017
#1018
#1019
#1020
#1021
0#
1$
0'
1(
0*
1+
b00010 .
b001001 /
b00100100010 0
b00001100101 3
b00010010001 6
17
#1022
#1023
#1024
#1025
#1026
07
#1027
#1028
#1029
#1030
#1031
1#
0$
1%
0(
1)
0+
1,
b00101 .
b010010 /
b01001000101 0
b00001100110 3
b00100100010 6
17
#1032
#1033
#1034
#1035
#1036
07
#1037
#1038
#1039
#1040
#1041
0#
1$
0%
1&
0)
1*
0,
1-
b01010 .
b100100 /
b10010001010 0
b00001100111 3
b01001000101 6
17
#1042
#1043
#1044
#1045
#1046
07
#1047
#1048
#1049
#1050
#1051
1#
0$
1%
0&
1'
0*
1+
0-
b10101 .
b001000 /
b00100010101 0
b00001101000 3
b10010001010 6
17
#1052
#1053
#1054
#1055
#1056
07
#1057
#1058
#1059
#1060
#1061
1$
0%
1&
0'
1(
0+
1,
b01011 .
b010001 /
b01000101011 0
b00001101001 3
b00100010101 6
17
#1062
#1063
#1064
#1065
#1066
07
#1067
#1068
#1069
#1070
#1071
0#
1%
0&
1'
0(
1)
0,
1-
b10110 .
b100010 /
b10001010110 0
b00001101010 3
b01000101011 6
17
#1072
#1073
#1074
#1075
#1076
07
#1077
#1078
#1079
#1080
#1081
1#
0$
1&
0'
1(
0)
1*
0-
b01101 .
b000101 /
b00010101101 0
b00001101011 3
b10001010110 6
17
#1082
#1083
#1084
#1085
#1086
07
#1087
#1088
#1089
#1090
#1091
0#
1$
0%
1'
0(
1)
0*
1+
b11010 .
b001010 /
b00101011010 0
b00001101100 3
b00010101101 6
17
#1092
#1093
#1094
#1095
#1096
07
#1097
#1098
#1099
#1100
#1101
1#
0$
1%
0&
1(
0)
1*
0+
1,
b10101 .
b010101 /
b01010110101 0
b00001101101 3
b00101011010 6
17
#1102
#1103
#1104
#1105
#1106
07
#1107
#1108
#1109
#1110
#1111
0#
1$
0%
1&
0'
1)
0*
1+
0,
1-
b01010 .
b101011 /
b10101101010 0
b00001101110 3
b01010110101 6
17
#1112
#1113
#1114
#1115
#1116
07
#1117
#1118
#1119
#1120
#1121
0$
1%
0&
1'
0(
1*
0+
1,
0-
b10100 .
b010110 /
b01011010100 0
b00001101111 3
b10101101010 6
17
#1122
#1123
#1124
#1125
#1126
07
#1127
#1128
#1129
#1130
#1131
0%
1&
0'
1(
0)
1+
0,
1-
b01000 .
b101101 /
b10110101000 0
b00001110000 3
b01011010100 6
17
#1132
#1133
#1134
#1135
#1136
07
#1137
#1138
#1139
#1140
#1141
0&
1'
0(
1)
0*
1,
0-
b10000 .
b011010 /
b01101010000 0
b00001110001 3
b10110101000 6
17
#1142
#1143
#1144
#1145
#1146
07
#1147
#1148
#1149
#1150
#1151
1#
0'
1(
0)
1*
0+
1-
b00001 .
b110101 /
b11010100001 0
b00001110010 3
b01101010000 6
17
#1152
#1153
#1154
#1155
#1156
07
#1157
#1158
#1159
#1160
#1161
1$
0(
1)
0*
1+
0,
b00011 .
b101010 /
b10101000011 0
b00001110011 3
b11010100001 6
17
#1162
#1163
#1164
#1165
#1166
07
#1167
#1168
#1169
#1170
#1171
0#
1%
0)
1*
0+
1,
0-
b00110 .
b010100 /
b01010000110 0
b00001110100 3
b10101000011 6
17
#1172
#1173
#1174
#1175
#1176
07
#1177
#1178
#1179
#1180
#1181
0$
1&
0*
1+
0,
1-
b01100 .
b101000 /
b10100001100 0
b00001110101 3
b01010000110 6
17
#1182
#1183
#1184
#1185
#1186
07
#1187
#1188
#1189
#1190
#1191
0%
1'
0+
1,
0-
b11000 .
b010000 /
b01000011000 0
b00001110110 3
b10100001100 6
17
#1192
#1193
#1194
#1195
#1196
07
#1197
#1198
#1199
#1200
#1201
0&
1(
0,
1-
b10000 .
b100001 /
b10000110000 0
b00001110111 3
b01000011000 6
17
#1202
#1203
#1204
#1205
#1206
07
#1207
#1208
#1209
#1210
#1211
1#
0'
1)
0-
b00001 .
b000011 /
b00001100001 0
b00001111000 3
b10000110000 6
17
#1212
#1213
#1214
#1215
#1216
07
#1217
#1218
#1219
#1220
#1221
0#
1$
0(
1*
b00010 .
b000110 /
b00011000010 0
b00001111001 3
b00001100001 6
17
#1222
#1223
#1224
#1225
#1226
07
#1227
#1228
#1229
#1230
#1231
0$
1%
0)
1+
b00100 .
b001100 /
b00110000100 0
b00001111010 3
b00011000010 6
17
#1232
#1233
#1234
#1235
#1236
07
#1237
#1238
#1239
#1240
#1241
1#
0%
1&
0*
1,
b01001 .
b011000 /
b01100001001 0
b00001111011 3
b00110000100 6
17
#1242
#1243
#1244
#1245
#1246
07
#1247
#1248
#1249
#1250
#1251
1$
0&
1'
0+
1-
b10011 .
b110000 /
b11000010011 0
b00001111100 3
b01100001001 6
17
#1252
#1253
#1254
#1255
#1256
07
#1257
#1258
#1259
#1260
#1261
1%
0'
1(
0,
b00111 .
b100001 /
b10000100111 0
b00001111101 3
b11000010011 6
17
#1262
#1263
#1264
#1265
#1266
07
#1267
#1268
#1269
#1270
#1271
1&
0(
1)
0-
b01111 .
b000010 /
b00001001111 0
b00001111110 3
b10000100111 6
17
#1272
#1273
#1274
#1275
#1276
07
#1277
#1278
#1279
#1280
#1281
0#
1'
0)
1*
b11110 .
b000100 /
b00010011110 0
b00001111111 3
b00001001111 6
17
#1282
#1283
#1284
#1285
#1286
07
#1287
#1288
#1289
#1290
#1291
0$
1(
0*
1+
b11100 .
b001001 /
b00100111100 0
b00010000000 3
b00010011110 6
17
#1292
#1293
#1294
#1295
#1296
07
#1297
#1298
#1299
#1300
#1301
1#
0%
1)
0+
1,
b11001 .
b010011 /
b01001111001 0
b00010000001 3
b00100111100 6
17
#1302
#1303
#1304
#1305
#1306
07
#1307
#1308
#1309
#1310
#1311
0#
1$
0&
1*
0,
1-
b10010 .
b100111 /
b10011110010 0
b00010000010 3
b01001111001 6
17
#1312
#1313
#1314
#1315
#1316
07
#1317
#1318
#1319
#1320
#1321
1#
0$
1%
0'
1+
0-
b00101 .
b001111 /
b00111100101 0
b00010000011 3
b10011110010 6
17
#1322
#1323
#1324
#1325
#1326
07
#1327
#1328
#1329
#1330
#1331
1$
0%
1&
0(
1,
b01011 .
b011110 /
b01111001011 0
b00010000100 3
b00111100101 6
17
#1332
#1333
#1334
#1335
#1336
07
#1337
#1338
#1339
#1340
#1341
1%
0&
1'
0)
1-
b10111 .
b111100 /
b11110010111 0
b00010000101 3
b01111001011 6
17
#1342
#1343
#1344
#1345
#1346
07
#1347
#1348
#1349
#1350
#1351
0#
1&
0'
1(
0*
b01110 .
b111001 /
b11100101110 0
b00010000110 3
b11110010111 6
17
#1352
#1353
#1354
#1355
#1356
07
#1357
#1358
#1359
#1360
#1361
0$
1'
0(
1)
0+
b11100 .
b110010 /
b11001011100 0
b00010000111 3
b11100101110 6
17
#1362
#1363
#1364
#1365
#1366
07
#1367
#1368
#1369
#1370
#1371
1#
0%
1(
0)
1*
0,
b11001 .
b100101 /
b10010111001 0
b00010001000 3
b11001011100 6
17
#1372
#1373
#1374
#1375
#1376
07
#1377
#1378
#1379
#1380
#1381
1$
0&
1)
0*
1+
0-
b10011 .
b001011 /
b00101110011 0
b00010001001 3
b10010111001 6
17
#1382
#1383
#1384
#1385
#1386
07
#1387
#1388
#1389
#1390
#1391
1%
0'
1*
0+
1,
b00111 .
b010111 /
b01011100111 0
b00010001010 3
b00101110011 6
17
#1392
#1393
#1394
#1395
#1396
07
#1397
#1398
#1399
#1400
#1401
0#
1&
0(
1+
0,
1-
b01110 .
b101110 /
b10111001110 0
b00010001011 3
b01011100111 6
17
#1402
#1403
#1404
#1405
#1406
07
#1407
#1408
#1409
#1410
#1411
0$
1'
0)
1,
0-
b11100 .
b011100 /
b01110011100 0
b00010001100 3
b10111001110 6
17
#1412
#1413
#1414
#1415
#1416
07
#1417
#1418
#1419
#1420
#1421
1#
0%
1(
0*
1-
b11001 .
b111001 /
b11100111001 0
b00010001101 3
b01110011100 6
17
#1422
#1423
#1424
#1425
#1426
07
#1427
#1428
#1429
#1430
#1431
0#
1$
0&
1)
0+
b10010 .
b110011 /
b11001110010 0
b00010001110 3
b11100111001 6
17
#1432
#1433
#1434
#1435
#1436
07
#1437
#1438
#1439
#1440
#1441
1#
0$
1%
0'
1*
0,
b00101 .
b100111 /
b10011100101 0
b00010001111 3
b11001110010 6
17
#1442
#1443
#1444
#1445
#1446
07
#1447
#1448
#1449
#1450
#1451
1$
0%
1&
0(
1+
0-
b01011 .
b001110 /
b00111001011 0
b00010010000 3
b10011100101 6
17
#1452
#1453
#1454
#1455
#1456
07
#1457
#1458
#1459
#1460
#1461
1%
0&
1'
0)
1,
b10111 .
b011100 /
b01110010111 0
b00010010001 3
b00111001011 6
17
#1462
#1463
#1464
#1465
#1466
07
#1467
#1468
#1469
#1470
#1471
1&
0'
1(
0*
1-
b01111 .
b111001 /
b11100101111 0
b00010010010 3
b01110010111 6
17
#1472
#1473
#1474
#1475
#1476
07
#1477
#1478
#1479
#1480
#1481
0#
1'
0(
1)
0+
b11110 .
b110010 /
b11001011110 0
b00010010011 3
b11100101111 6
17
#1482
#1483
#1484
#1485
#1486
07
#1487
#1488
#1489
#1490
#1491
1#
0$
1(
0)
1*
0,
b11101 .
b100101 /
b10010111101 0
b00010010100 3
b11001011110 6
17
#1492
#1493
#1494
#1495
#1496
07
#1497
#1498
#1499
#1500
#1501
1$
0%
1)
0*
1+
0-
b11011 .
b001011 /
b00101111011 0
b00010010101 3
b10010111101 6
17
#1502
#1503
#1504
#1505
#1506
07
#1507
#1508
#1509
#1510
#1511
1%
0&
1*
0+
1,
b10111 .
b010111 /
b01011110111 0
b00010010110 3
b00101111011 6
17
#1512
#1513
#1514
#1515
#1516
07
#1517
#1518
#1519
#1520
#1521
0#
1&
0'
1+
0,
1-
b01110 .
b101111 /
b10111101110 0
b00010010111 3
b01011110111 6
17
#1522
#1523
#1524
#1525
#1526
07
#1527
#1528
#1529
#1530
#1531
0$
1'
0(
1,
0-
b11100 .
b011110 /
b01111011100 0
b00010011000 3
b10111101110 6
17
#1532
#1533
#1534
#1535
