test_run_dir/QueueFlowTester/2021070521432613050119955558000428/dump.vcd
$version Generated by VerilatedVcd $end
$date Mon Jul  5 21:43:28 2021 $end
$timescale 1ps $end

 $scope module TOP $end
  $var wire  1 H clock $end
  $var wire  1 I reset $end
  $scope module QueueFlowTester $end
   $var wire  1 H clock $end
   $var wire  1 H q_clock $end
   $var wire  2 ' q_io_count [1:0] $end
   $var wire  1 % q_io_deq_ready $end
   $var wire  8 : q_io_deq_ready_lo [7:0] $end
   $var wire  1 H q_io_deq_ready_prng_clock $end
   $var wire  1 ( q_io_deq_ready_prng_io_out_0 $end
   $var wire  1 ) q_io_deq_ready_prng_io_out_1 $end
   $var wire  1 2 q_io_deq_ready_prng_io_out_10 $end
   $var wire  1 3 q_io_deq_ready_prng_io_out_11 $end
   $var wire  1 4 q_io_deq_ready_prng_io_out_12 $end
   $var wire  1 5 q_io_deq_ready_prng_io_out_13 $end
   $var wire  1 6 q_io_deq_ready_prng_io_out_14 $end
   $var wire  1 7 q_io_deq_ready_prng_io_out_15 $end
   $var wire  1 * q_io_deq_ready_prng_io_out_2 $end
   $var wire  1 + q_io_deq_ready_prng_io_out_3 $end
   $var wire  1 , q_io_deq_ready_prng_io_out_4 $end
   $var wire  1 - q_io_deq_ready_prng_io_out_5 $end
   $var wire  1 . q_io_deq_ready_prng_io_out_6 $end
   $var wire  1 / q_io_deq_ready_prng_io_out_7 $end
   $var wire  1 0 q_io_deq_ready_prng_io_out_8 $end
   $var wire  1 1 q_io_deq_ready_prng_io_out_9 $end
   $var wire  1 I q_io_deq_ready_prng_reset $end
   $var wire  1 & q_io_deq_valid $end
   $var wire  1 # q_io_enq_ready $end
   $var wire  1 $ q_io_enq_valid $end
   $var wire  1 I q_reset $end
   $var wire  1 I reset $end
   $var wire  5 8 value [4:0] $end
   $var wire  5 9 value_1 [4:0] $end
   $var wire  1 ; wrap $end
   $var wire  1 < wrap_1 $end
   $scope module q $end
    $var wire  1 H clock $end
    $var wire  2 > deq_ptr_value [1:0] $end
    $var wire  1 F do_deq $end
    $var wire  1 D do_enq $end
    $var wire  1 A empty $end
    $var wire  2 = enq_ptr_value [1:0] $end
    $var wire  1 B full $end
    $var wire  2 ' io_count [1:0] $end
    $var wire  1 % io_deq_ready $end
    $var wire  1 & io_deq_valid $end
    $var wire  1 # io_enq_ready $end
    $var wire  1 $ io_enq_valid $end
    $var wire  1 ? maybe_full $end
    $var wire  2 G ptr_diff [1:0] $end
    $var wire  1 @ ptr_match $end
    $var wire  1 I reset $end
    $var wire  1 C wrap $end
    $var wire  1 E wrap_1 $end
   $upscope $end
   $scope module q_io_deq_ready_prng $end
    $var wire  1 H clock $end
    $var wire  1 ( io_out_0 $end
    $var wire  1 ) io_out_1 $end
    $var wire  1 2 io_out_10 $end
    $var wire  1 3 io_out_11 $end
    $var wire  1 4 io_out_12 $end
    $var wire  1 5 io_out_13 $end
    $var wire  1 6 io_out_14 $end
    $var wire  1 7 io_out_15 $end
    $var wire  1 * io_out_2 $end
    $var wire  1 + io_out_3 $end
    $var wire  1 , io_out_4 $end
    $var wire  1 - io_out_5 $end
    $var wire  1 . io_out_6 $end
    $var wire  1 / io_out_7 $end
    $var wire  1 0 io_out_8 $end
    $var wire  1 1 io_out_9 $end
    $var wire  1 I reset $end
    $var wire  1 ( state_0 $end
    $var wire  1 ) state_1 $end
    $var wire  1 2 state_10 $end
    $var wire  1 3 state_11 $end
    $var wire  1 4 state_12 $end
    $var wire  1 5 state_13 $end
    $var wire  1 6 state_14 $end
    $var wire  1 7 state_15 $end
    $var wire  1 * state_2 $end
    $var wire  1 + state_3 $end
    $var wire  1 , state_4 $end
    $var wire  1 - state_5 $end
    $var wire  1 . state_6 $end
    $var wire  1 / state_7 $end
    $var wire  1 0 state_8 $end
    $var wire  1 1 state_9 $end
   $upscope $end
  $upscope $end
 $upscope $end
$enddefinitions $end


#0
1#
1$
0%
1&
b00 '
0(
0)
0*
0+
0,
0-
0.
0/
00
01
02
03
04
05
06
07
b00000 8
b00000 9
b00000000 :
0;
0<
b00 =
b00 >
0?
1@
1A
0B
0C
1D
0E
0F
b00 G
0H
1I
#1
1(
b00000001 :
1H
#2
#3
#4
#5
#6
0H
#7
#8
#9
#10
0I
#11
b01 '
0(
1)
b00001 8
b00000010 :
b01 =
1?
0@
0A
b01 G
1H
#12
#13
#14
#15
#16
0H
#17
#18
#19
#20
#21
b10 '
0)
1*
b00010 8
b00000100 :
b10 =
1C
b10 G
1H
#22
#23
#24
#25
#26
0H
#27
#28
#29
#30
#31
0#
b11 '
0*
1+
b00011 8
b00001000 :
b00 =
1@
1B
0C
0D
b00 G
1H
#32
#33
#34
#35
#36
0H
#37
#38
#39
#40
#41
0+
1,
b00010000 :
1H
#42
#43
#44
#45
#46
0H
#47
#48
#49
#50
#51
0,
1-
b00100000 :
1H
#52
#53
#54
#55
#56
0H
#57
#58
#59
#60
#61
0-
1.
b01000000 :
1H
#62
#63
#64
#65
#66
0H
#67
#68
#69
#70
#71
0.
1/
b10000000 :
1H
#72
#73
#74
#75
#76
0H
#77
#78
#79
#80
#81
0/
10
b00000000 :
1H
#82
#83
#84
#85
#86
0H
#87
#88
#89
#90
#91
00
11
1H
#92
#93
#94
#95
#96
0H
#97
#98
#99
#100
#101
01
12
1H
#102
#103
#104
#105
#106
0H
#107
#108
#109
#110
#111
1(
02
13
b00000001 :
1H
#112
#113
#114
#115
#116
0H
#117
#118
#119
#120
#121
0(
1)
03
14
b00000010 :
1H
#122
#123
#124
#125
#126
0H
#127
#128
#129
#130
#131
1(
0)
1*
04
15
b00000101 :
1H
#132
#133
#134
#135
#136
0H
#137
#138
#139
#140
#141
1)
0*
1+
05
16
b00001011 :
1H
#142
#143
#144
#145
#146
0H
#147
#148
#149
#150
#151
1%
0(
1*
0+
1,
06
17
b00010110 :
1F
1H
#152
#153
#154
#155
#156
0H
#157
#158
#159
#160
#161
1#
0%
b10 '
1(
0)
1+
0,
1-
07
b00001 9
b00101101 :
b01 >
0?
0@
0B
1D
0F
b11 G
1H
#162
#163
#164
#165
#166
0H
#167
#168
#169
#170
#171
0#
b11 '
0(
1)
0*
1,
0-
1.
b00100 8
b01011010 :
b01 =
1?
1@
1B
0D
b00 G
1H
#172
#173
#174
#175
#176
0H
#177
#178
#179
#180
#181
0)
1*
0+
1-
0.
1/
b10110100 :
1H
#182
#183
#184
#185
#186
0H
#187
#188
#189
#190
#191
0*
1+
0,
1.
0/
10
b01101000 :
1H
#192
#193
#194
#195
#196
0H
#197
#198
#199
#200
#201
0+
1,
0-
1/
00
11
b11010000 :
1H
#202
#203
#204
#205
#206
0H
#207
#208
#209
#210
#211
0,
1-
0.
10
01
12
b10100000 :
1H
#212
#213
#214
#215
#216
0H
#217
#218
#219
#220
#221
1(
0-
1.
0/
11
02
13
b01000001 :
1H
#222
#223
#224
#225
#226
0H
#227
#228
#229
#230
#231
0(
1)
0.
1/
00
12
03
14
b10000010 :
1H
#232
#233
#234
#235
#236
0H
#237
#238
#239
#240
#241
0)
1*
0/
10
01
13
04
15
b00000100 :
1H
#242
#243
#244
#245
#246
0H
#247
#248
#249
#250
#251
0*
1+
00
11
02
14
05
16
b00001000 :
1H
#252
#253
#254
#255
#256
0H
#257
#258
#259
#260
#261
1%
1(
0+
1,
01
12
03
15
06
17
b00010001 :
1F
1H
#262
#263
#264
#265
#266
0H
#267
#268
#269
#270
#271
1#
0%
b10 '
0(
1)
0,
1-
02
13
04
16
07
b00010 9
b00100010 :
b10 >
0?
0@
0B
1D
1E
0F
b11 G
1H
#272
#273
#274
#275
#276
0H
#277
#278
#279
#280
#281
0#
1%
b11 '
1(
0)
1*
0-
1.
03
14
05
17
b00101 8
b01000101 :
b10 =
1?
1@
1B
1C
0D
1F
b00 G
1H
#282
#283
#284
#285
#286
0H
#287
#288
#289
#290
#291
1#
b10 '
0(
1)
0*
1+
0.
1/
04
15
06
b00011 9
b10001010 :
b00 >
0?
0@
0B
1D
0E
b10 G
1H
#292
#293
#294
#295
#296
0H
#297
#298
#299
#300
#301
0%
0)
1*
0+
1,
0/
10
05
16
07
b00110 8
b00100 9
b00010100 :
b00 =
b01 >
0C
0F
b11 G
1H
#302
#303
#304
#305
#306
0H
#307
#308
#309
#310
#311
0#
1%
b11 '
0*
1+
0,
1-
00
11
06
17
b00111 8
b00101000 :
b01 =
1?
1@
1B
0D
1F
b00 G
1H
#312
#313
#314
#315
#316
0H
#317
#318
#319
#320
#321
1#
0%
b10 '
1(
0+
1,
0-
1.
01
12
07
b00101 9
b01010001 :
b10 >
0?
0@
0B
1D
1E
0F
b11 G
1H
#322
#323
#324
#325
#326
0H
#327
#328
#329
#330
#331
0#
b11 '
1)
0,
1-
0.
1/
02
13
b01000 8
b10100011 :
b10 =
1?
1@
1B
1C
0D
b00 G
1H
#332
#333
#334
#335
#336
0H
#337
#338
#339
#340
#341
0(
1*
0-
1.
0/
10
03
14
b01000110 :
1H
#342
#343
#344
#345
#346
0H
#347
#348
#349
#350
#351
1(
0)
1+
0.
1/
00
11
04
15
b10001101 :
1H
#352
#353
#354
#355
#356
0H
#357
#358
#359
#360
#361
1)
0*
1,
0/
10
01
12
05
16
b00011011 :
1H
#362
#363
#364
#365
#366
0H
#367
#368
#369
#370
#371
1%
1*
0+
1-
00
11
02
13
06
17
b00110111 :
1F
1H
#372
#373
#374
#375
#376
0H
#377
#378
#379
#380
#381
1#
0%
b10 '
1+
0,
1.
01
12
03
14
07
b00110 9
b01101111 :
b00 >
0?
0@
0B
1D
0E
0F
b10 G
1H
#382
#383
#384
#385
#386
0H
#387
#388
#389
#390
#391
0#
b11 '
0(
1,
0-
1/
02
13
04
15
b01001 8
b11011110 :
b00 =
1?
1@
1B
0C
0D
b00 G
1H
#392
#393
#394
#395
#396
0H
#397
#398
#399
#400
#401
1(
0)
1-
0.
10
03
14
05
16
b10111101 :
1H
#402
#403
#404
#405
#406
0H
#407
#408
#409
#410
#411
1%
1)
0*
1.
0/
11
04
15
06
17
b01111011 :
1F
1H
#412
#413
#414
#415
#416
0H
#417
#418
#419
#420
#421
1#
0%
b10 '
0(
1*
0+
1/
00
12
05
16
07
b00111 9
b11110110 :
b01 >
0?
0@
0B
1D
0F
b11 G
1H
#422
#423
#424
#425
#426
0H
#427
#428
#429
#430
#431
0#
1%
b11 '
1(
0)
1+
0,
10
01
13
06
17
b01010 8
b11101101 :
b01 =
1?
1@
1B
0D
1F
b00 G
1H
#432
#433
#434
#435
#436
0H
#437
#438
#439
#440
#441
1#
0%
b10 '
0(
1)
0*
1,
0-
11
02
14
07
b01000 9
b11011010 :
b10 >
0?
0@
0B
1D
1E
0F
b11 G
1H
#442
#443
#444
#445
#446
0H
#447
#448
#449
#450
#451
0#
b11 '
1(
0)
1*
0+
1-
0.
12
03
15
b01011 8
b10110101 :
b10 =
1?
1@
1B
1C
0D
b00 G
1H
#452
#453
#454
#455
#456
0H
#457
#458
#459
#460
#461
1)
0*
1+
0,
1.
0/
13
04
16
b01101011 :
1H
#462
#463
#464
#465
#466
0H
#467
#468
#469
#470
#471
1%
0(
1*
0+
1,
0-
1/
00
14
05
17
b11010110 :
1F
1H
#472
#473
#474
#475
#476
0H
#477
#478
#479
#480
#481
1#
b10 '
1(
0)
1+
0,
1-
0.
10
01
15
06
b01001 9
b10101101 :
b00 >
0?
0@
0B
1D
0E
b10 G
1H
#482
#483
#484
#485
#486
0H
#487
#488
#489
#490
#491
0%
0(
1)
0*
1,
0-
1.
0/
11
02
16
07
b01100 8
b01010 9
b01011010 :
b00 =
b01 >
0C
0F
b11 G
1H
#492
#493
#494
#495
#496
0H
#497
#498
#499
#500
#501
0#
1%
b11 '
0)
1*
0+
1-
0.
1/
00
12
03
17
b01101 8
b10110100 :
b01 =
1?
1@
1B
0D
1F
b00 G
1H
#502
#503
#504
#505
#506
0H
#507
#508
#509
#510
#511
1#
b10 '
0*
1+
0,
1.
0/
10
01
13
04
b01011 9
b01101000 :
b10 >
0?
0@
0B
1D
1E
b11 G
1H
#512
#513
#514
#515
#516
0H
#517
#518
#519
#520
#521
1(
0+
1,
0-
1/
00
11
02
14
05
b01110 8
b01100 9
b11010001 :
b10 =
b00 >
1C
0E
b10 G
1H
#522
#523
#524
#525
#526
0H
#527
#528
#529
#530
#531
0(
1)
0,
1-
0.
10
01
12
03
15
06
b01111 8
b01101 9
b10100010 :
b00 =
b01 >
0C
b11 G
1H
#532
#533
#534
#535
#536
0H
#537
#538
#539
#540
#541
0%
0)
1*
0-
1.
0/
11
02
13
04
16
07
b10000 8
b01110 9
b01000100 :
b01 =
b10 >
1E
0F
1H
#542
#543
#544
#545
#546
0H
#547
#548
#549
#550
#551
0#
1%
b11 '
1(
0*
1+
0.
1/
00
12
03
14
05
17
b10001 8
b10001001 :
b10 =
1?
1@
1B
1C
0D
1F
b00 G
1H
#552
#553
#554
#555
#556
0H
#557
#558
#559
#560
#561
1#
b10 '
1)
0+
1,
0/
10
01
13
04
15
06
b01111 9
b00010011 :
b00 >
0?
0@
0B
1D
0E
b10 G
1H
#562
#563
#564
#565
#566
0H
#567
#568
#569
#570
#571
0%
1*
0,
1-
00
11
02
14
05
16
07
b10010 8
b10000 9
b00100111 :
b00 =
b01 >
0C
0F
b11 G
1H
#572
#573
#574
#575
#576
0H
#577
#578
#579
#580
#581
0#
1%
b11 '
1+
0-
1.
01
12
03
15
06
17
b10011 8
b01001111 :
b01 =
1?
1@
1B
0D
1F
b00 G
1H
#582
#583
#584
#585
#586
0H
#587
#588
#589
#590
#591
1#
0%
b10 '
0(
1,
0.
1/
02
13
04
16
07
b10001 9
b10011110 :
b10 >
0?
0@
0B
1D
1E
0F
b11 G
1H
#592
#593
#594
#595
#596
0H
#597
#598
#599
#600
#601
0#
0$
1%
b11 '
1(
0)
1-
0/
10
03
14
05
17
b10100 8
b00111101 :
1;
b10 =
1?
1@
1B
1C
0D
1F
b00 G
1H
#602
#603
#604
#605
#606
0H
#607
#608
#609
#610
#611
1#
b10 '
0(
1)
0*
1.
00
11
04
15
06
b10010 9
b01111010 :
b00 >
0?
0@
0B
0E
b10 G
1H
#612
#613
#614
#615
#616
0H
#617
#618
#619
#620
#621
0%
b01 '
0)
1*
0+
1/
01
12
05
16
07
b10011 9
b11110100 :
b01 >
0F
b01 G
1H
#622
#623
#624
#625
#626
0H
#627
#628
#629
#630
#631
1%
1(
0*
1+
0,
10
02
13
06
17
b11101001 :
1F
1H
#632
#633
#634
#635
#636
0H
#637
#638
#639
#640
#641
0%
0&
b00 '
1)
0+
1,
0-
11
03
14
07
b10100 9
b11010011 :
1<
b10 >
1@
1A
1E
0F
b00 G
1H
