test_run_dir/LFSRMaxPeriod/202107052136117791512906319940621/dump.vcd
$version Generated by VerilatedVcd $end
$date Mon Jul  5 21:36:13 2021 $end
$timescale 1ps $end

 $scope module TOP $end
  $var wire  1 1 clock $end
  $var wire  1 2 reset $end
  $scope module LFSRMaxPeriod $end
   $var wire  1 1 clock $end
   $var wire  5 0 last [4:0] $end
   $var wire  1 2 reset $end
   $var wire  5 * rv [4:0] $end
   $var wire  3 ) rv_hi [2:0] $end
   $var wire  2 ( rv_lo [1:0] $end
   $var wire  1 1 rv_prng_clock $end
   $var wire  1 # rv_prng_io_out_0 $end
   $var wire  1 $ rv_prng_io_out_1 $end
   $var wire  1 % rv_prng_io_out_2 $end
   $var wire  1 & rv_prng_io_out_3 $end
   $var wire  1 ' rv_prng_io_out_4 $end
   $var wire  1 2 rv_prng_reset $end
   $var wire  5 , seed [4:0] $end
   $var wire  1 + started $end
   $var wire  1 / wrap $end
   $var wire  5 - wrap_value [4:0] $end
   $var wire  1 . wrap_wrap_wrap $end
   $scope module rv_prng $end
    $var wire  1 1 clock $end
    $var wire  1 # io_out_0 $end
    $var wire  1 $ io_out_1 $end
    $var wire  1 % io_out_2 $end
    $var wire  1 & io_out_3 $end
    $var wire  1 ' io_out_4 $end
    $var wire  1 2 reset $end
    $var wire  1 # state_0 $end
    $var wire  1 $ state_1 $end
    $var wire  1 % state_2 $end
    $var wire  1 & state_3 $end
    $var wire  1 ' state_4 $end
   $upscope $end
  $upscope $end
 $upscope $end
$enddefinitions $end


#0
0#
0$
0%
0&
0'
b00 (
b000 )
b00000 *
0+
b00000 ,
b00000 -
0.
0/
b00000 0
01
12
#1
1#
b01 (
b00001 *
11
#2
#3
#4
#5
#6
01
#7
#8
#9
#10
02
#11
0#
1$
b10 (
b00010 *
1+
b00001 ,
b00001 0
11
#12
#13
#14
#15
#16
01
#17
#18
#19
#20
#21
1#
0$
1%
b01 (
b001 )
b00101 *
b00001 -
b00010 0
11
#22
#23
#24
#25
#26
01
#27
#28
#29
#30
#31
1$
0%
1&
b11 (
b010 )
b01011 *
b00010 -
b00101 0
11
#32
#33
#34
#35
#36
01
#37
#38
#39
#40
#41
0#
1%
0&
1'
b10 (
b101 )
b10110 *
b00011 -
b01011 0
11
#42
#43
#44
#45
#46
01
#47
#48
#49
#50
#51
1#
0$
1&
0'
b01 (
b011 )
b01101 *
b00100 -
b10110 0
11
#52
#53
#54
#55
#56
01
#57
#58
#59
#60
#61
0#
1$
0%
1'
b10 (
b110 )
b11010 *
b00101 -
b01101 0
11
#62
#63
#64
#65
#66
01
#67
#68
#69
#70
#71
1#
0$
1%
0&
b01 (
b101 )
b10101 *
b00110 -
b11010 0
11
#72
#73
#74
#75
#76
01
#77
#78
#79
#80
#81
0#
1$
0%
1&
0'
b10 (
b010 )
b01010 *
b00111 -
b10101 0
11
#82
#83
#84
#85
#86
01
#87
#88
#89
#90
#91
0$
1%
0&
1'
b00 (
b101 )
b10100 *
b01000 -
b01010 0
11
#92
#93
#94
#95
#96
01
#97
#98
#99
#100
#101
0%
1&
0'
b010 )
b01000 *
b01001 -
b10100 0
11
#102
#103
#104
#105
#106
01
#107
#108
#109
#110
#111
1#
0&
1'
b01 (
b100 )
b10001 *
b01010 -
b01000 0
11
#112
#113
#114
#115
#116
01
#117
#118
#119
#120
#121
1$
0'
b11 (
b000 )
b00011 *
b01011 -
b10001 0
11
#122
#123
#124
#125
#126
01
#127
#128
#129
#130
#131
1%
b001 )
b00111 *
b01100 -
b00011 0
11
#132
#133
#134
#135
#136
01
#137
#138
#139
#140
#141
0#
1&
b10 (
b011 )
b01110 *
b01101 -
b00111 0
11
#142
#143
#144
#145
#146
01
#147
#148
#149
#150
#151
1#
0$
1'
b01 (
b111 )
b11101 *
b01110 -
b01110 0
11
#152
#153
#154
#155
#156
01
#157
#158
#159
#160
#161
1$
0%
b11 (
b110 )
b11011 *
b01111 -
b11101 0
11
#162
#163
#164
#165
#166
01
#167
#168
#169
#170
#171
1%
0&
b101 )
b10111 *
b10000 -
b11011 0
11
#172
#173
#174
#175
#176
01
#177
#178
#179
#180
#181
1&
0'
b011 )
b01111 *
b10001 -
b10111 0
11
#182
#183
#184
#185
#186
01
#187
#188
#189
#190
#191
1'
b111 )
b11111 *
b10010 -
b01111 0
11
#192
#193
#194
#195
#196
01
#197
#198
#199
#200
#201
0#
b10 (
b11110 *
b10011 -
b11111 0
11
#202
#203
#204
#205
#206
01
#207
#208
#209
#210
#211
0$
b00 (
b11100 *
b10100 -
b11110 0
11
#212
#213
#214
#215
#216
01
#217
#218
#219
#220
#221
1#
0%
b01 (
b110 )
b11001 *
b10101 -
b11100 0
11
#222
#223
#224
#225
#226
01
#227
#228
#229
#230
#231
0#
1$
0&
b10 (
b100 )
b10010 *
b10110 -
b11001 0
11
#232
#233
#234
#235
#236
01
#237
#238
#239
#240
#241
0$
1%
0'
b00 (
b001 )
b00100 *
b10111 -
b10010 0
11
#242
#243
#244
#245
#246
01
#247
#248
#249
#250
#251
1#
0%
1&
b01 (
b010 )
b01001 *
b11000 -
b00100 0
11
#252
#253
#254
#255
#256
01
#257
#258
#259
#260
#261
1$
0&
1'
b11 (
b100 )
b10011 *
b11001 -
b01001 0
11
#262
#263
#264
#265
#266
01
#267
#268
#269
#270
#271
0#
1%
0'
b10 (
b001 )
b00110 *
b11010 -
b10011 0
11
#272
#273
#274
#275
#276
01
#277
#278
#279
#280
#281
0$
1&
b00 (
b011 )
b01100 *
b11011 -
b00110 0
11
#282
#283
#284
#285
#286
01
#287
#288
#289
#290
#291
0%
1'
b110 )
b11000 *
b11100 -
b01100 0
11
#292
#293
#294
#295
#296
01
#297
#298
#299
#300
#301
0&
b100 )
b10000 *
b11101 -
b11000 0
11
#302
#303
#304
#305
#306
01
#307
#308
#309
#310
#311
1#
0'
b01 (
b000 )
b00001 *
b11110 -
1.
1/
b10000 0
11
