test_run_dir/QueueSinglePipeTester/202107052142562359122939672992916/dump.vcd
$version Generated by VerilatedVcd $end
$date Mon Jul  5 21:42:58 2021 $end
$timescale 1ps $end

 $scope module TOP $end
  $var wire  1 ? clock $end
  $var wire  1 @ reset $end
  $scope module QueueSinglePipeTester $end
   $var wire  1 ? clock $end
   $var wire  1 ? q_clock $end
   $var wire  1 & q_io_count $end
   $var wire  1 % q_io_deq_ready $end
   $var wire  8 9 q_io_deq_ready_lo [7:0] $end
   $var wire  1 ? q_io_deq_ready_prng_clock $end
   $var wire  1 ' q_io_deq_ready_prng_io_out_0 $end
   $var wire  1 ( q_io_deq_ready_prng_io_out_1 $end
   $var wire  1 1 q_io_deq_ready_prng_io_out_10 $end
   $var wire  1 2 q_io_deq_ready_prng_io_out_11 $end
   $var wire  1 3 q_io_deq_ready_prng_io_out_12 $end
   $var wire  1 4 q_io_deq_ready_prng_io_out_13 $end
   $var wire  1 5 q_io_deq_ready_prng_io_out_14 $end
   $var wire  1 6 q_io_deq_ready_prng_io_out_15 $end
   $var wire  1 ) q_io_deq_ready_prng_io_out_2 $end
   $var wire  1 * q_io_deq_ready_prng_io_out_3 $end
   $var wire  1 + q_io_deq_ready_prng_io_out_4 $end
   $var wire  1 , q_io_deq_ready_prng_io_out_5 $end
   $var wire  1 - q_io_deq_ready_prng_io_out_6 $end
   $var wire  1 . q_io_deq_ready_prng_io_out_7 $end
   $var wire  1 / q_io_deq_ready_prng_io_out_8 $end
   $var wire  1 0 q_io_deq_ready_prng_io_out_9 $end
   $var wire  1 @ q_io_deq_ready_prng_reset $end
   $var wire  1 & q_io_deq_valid $end
   $var wire  1 # q_io_enq_ready $end
   $var wire  1 $ q_io_enq_valid $end
   $var wire  1 @ q_reset $end
   $var wire  1 @ reset $end
   $var wire  5 7 value [4:0] $end
   $var wire  5 8 value_1 [4:0] $end
   $var wire  1 : wrap $end
   $var wire  1 ; wrap_1 $end
   $scope module q $end
    $var wire  1 ? clock $end
    $var wire  1 > do_deq $end
    $var wire  1 = do_enq $end
    $var wire  1 < empty $end
    $var wire  1 & io_count $end
    $var wire  1 % io_deq_ready $end
    $var wire  1 & io_deq_valid $end
    $var wire  1 # io_enq_ready $end
    $var wire  1 $ io_enq_valid $end
    $var wire  1 & maybe_full $end
    $var wire  1 @ reset $end
   $upscope $end
   $scope module q_io_deq_ready_prng $end
    $var wire  1 ? clock $end
    $var wire  1 ' io_out_0 $end
    $var wire  1 ( io_out_1 $end
    $var wire  1 1 io_out_10 $end
    $var wire  1 2 io_out_11 $end
    $var wire  1 3 io_out_12 $end
    $var wire  1 4 io_out_13 $end
    $var wire  1 5 io_out_14 $end
    $var wire  1 6 io_out_15 $end
    $var wire  1 ) io_out_2 $end
    $var wire  1 * io_out_3 $end
    $var wire  1 + io_out_4 $end
    $var wire  1 , io_out_5 $end
    $var wire  1 - io_out_6 $end
    $var wire  1 . io_out_7 $end
    $var wire  1 / io_out_8 $end
    $var wire  1 0 io_out_9 $end
    $var wire  1 @ reset $end
    $var wire  1 ' state_0 $end
    $var wire  1 ( state_1 $end
    $var wire  1 1 state_10 $end
    $var wire  1 2 state_11 $end
    $var wire  1 3 state_12 $end
    $var wire  1 4 state_13 $end
    $var wire  1 5 state_14 $end
    $var wire  1 6 state_15 $end
    $var wire  1 ) state_2 $end
    $var wire  1 * state_3 $end
    $var wire  1 + state_4 $end
    $var wire  1 , state_5 $end
    $var wire  1 - state_6 $end
    $var wire  1 . state_7 $end
    $var wire  1 / state_8 $end
    $var wire  1 0 state_9 $end
   $upscope $end
  $upscope $end
 $upscope $end
$enddefinitions $end


#0
1#
1$
0%
0&
0'
0(
0)
0*
0+
0,
0-
0.
0/
00
01
02
03
04
05
06
b00000 7
b00000 8
b00000000 9
0:
0;
1<
1=
0>
0?
1@
#1
1'
b00000001 9
1?
#2
#3
#4
#5
#6
0?
#7
#8
#9
#10
0@
#11
0#
1&
0'
1(
b00001 7
b00000010 9
0<
0=
1?
#12
#13
#14
#15
#16
0?
#17
#18
#19
#20
#21
0(
1)
b00000100 9
1?
#22
#23
#24
#25
#26
0?
#27
#28
#29
#30
#31
0)
1*
b00001000 9
1?
#32
#33
#34
#35
#36
0?
#37
#38
#39
#40
#41
0*
1+
b00010000 9
1?
#42
#43
#44
#45
#46
0?
#47
#48
#49
#50
#51
0+
1,
b00100000 9
1?
#52
#53
#54
#55
#56
0?
#57
#58
#59
#60
#61
0,
1-
b01000000 9
1?
#62
#63
#64
#65
#66
0?
#67
#68
#69
#70
#71
0-
1.
b10000000 9
1?
#72
#73
#74
#75
#76
0?
#77
#78
#79
#80
#81
0.
1/
b00000000 9
1?
#82
#83
#84
#85
#86
0?
#87
#88
#89
#90
#91
0/
10
1?
#92
#93
#94
#95
#96
0?
#97
#98
#99
#100
#101
00
11
1?
#102
#103
#104
#105
#106
0?
#107
#108
#109
#110
#111
1'
01
12
b00000001 9
1?
#112
#113
#114
#115
#116
0?
#117
#118
#119
#120
#121
0'
1(
02
13
b00000010 9
1?
#122
#123
#124
#125
#126
0?
#127
#128
#129
#130
#131
1'
0(
1)
03
14
b00000101 9
1?
#132
#133
#134
#135
#136
0?
#137
#138
#139
#140
#141
1#
1%
1(
0)
1*
04
15
b00001011 9
1=
1>
1?
#142
#143
#144
#145
#146
0?
#147
#148
#149
#150
#151
0#
0%
0'
1)
0*
1+
05
16
b00010 7
b00001 8
b00010110 9
0=
0>
1?
#152
#153
#154
#155
#156
0?
#157
#158
#159
#160
#161
1'
0(
1*
0+
1,
06
b00101101 9
1?
#162
#163
#164
#165
#166
0?
#167
#168
#169
#170
#171
0'
1(
0)
1+
0,
1-
b01011010 9
1?
#172
#173
#174
#175
#176
0?
#177
#178
#179
#180
#181
0(
1)
0*
1,
0-
1.
b10110100 9
1?
#182
#183
#184
#185
#186
0?
#187
#188
#189
#190
#191
0)
1*
0+
1-
0.
1/
b01101000 9
1?
#192
#193
#194
#195
#196
0?
#197
#198
#199
#200
#201
0*
1+
0,
1.
0/
10
b11010000 9
1?
#202
#203
#204
#205
#206
0?
#207
#208
#209
#210
#211
0+
1,
0-
1/
00
11
b10100000 9
1?
#212
#213
#214
#215
#216
0?
#217
#218
#219
#220
#221
1'
0,
1-
0.
10
01
12
b01000001 9
1?
#222
#223
#224
#225
#226
0?
#227
#228
#229
#230
#231
0'
1(
0-
1.
0/
11
02
13
b10000010 9
1?
#232
#233
#234
#235
#236
0?
#237
#238
#239
#240
#241
0(
1)
0.
1/
00
12
03
14
b00000100 9
1?
#242
#243
#244
#245
#246
0?
#247
#248
#249
#250
#251
1#
1%
0)
1*
0/
10
01
13
04
15
b00001000 9
1=
1>
1?
#252
#253
#254
#255
#256
0?
#257
#258
#259
#260
#261
0#
0%
1'
0*
1+
00
11
02
14
05
16
b00011 7
b00010 8
b00010001 9
0=
0>
1?
#262
#263
#264
#265
#266
0?
#267
#268
#269
#270
#271
1#
1%
0'
1(
0+
1,
01
12
03
15
06
b00100010 9
1=
1>
1?
#272
#273
#274
#275
#276
0?
#277
#278
#279
#280
#281
1'
0(
1)
0,
1-
02
13
04
16
b00100 7
b00011 8
b01000101 9
1?
#282
#283
#284
#285
#286
0?
#287
#288
#289
#290
#291
0#
0%
0'
1(
0)
1*
0-
1.
03
14
05
b00101 7
b00100 8
b10001010 9
0=
0>
1?
#292
#293
#294
#295
#296
0?
#297
#298
#299
#300
#301
1#
1%
0(
1)
0*
1+
0.
1/
04
15
06
b00010100 9
1=
1>
1?
#302
#303
#304
#305
#306
0?
#307
#308
#309
#310
#311
0#
0%
0)
1*
0+
1,
0/
10
05
16
b00110 7
b00101 8
b00101000 9
0=
0>
1?
#312
#313
#314
#315
#316
0?
#317
#318
#319
#320
#321
1'
0*
1+
0,
1-
00
11
06
b01010001 9
1?
#322
#323
#324
#325
#326
0?
#327
#328
#329
#330
#331
1(
0+
1,
0-
1.
01
12
b10100011 9
1?
#332
#333
#334
#335
#336
0?
#337
#338
#339
#340
#341
0'
1)
0,
1-
0.
1/
02
13
b01000110 9
1?
#342
#343
#344
#345
#346
0?
#347
#348
#349
#350
#351
1'
0(
1*
0-
1.
0/
10
03
14
b10001101 9
1?
#352
#353
#354
#355
#356
0?
#357
#358
#359
#360
#361
1#
1%
1(
0)
1+
0.
1/
00
11
04
15
b00011011 9
1=
1>
1?
#362
#363
#364
#365
#366
0?
#367
#368
#369
#370
#371
0#
0%
1)
0*
1,
0/
10
01
12
05
16
b00111 7
b00110 8
b00110111 9
0=
0>
1?
#372
#373
#374
#375
#376
0?
#377
#378
#379
#380
#381
1*
0+
1-
00
11
02
13
06
b01101111 9
1?
#382
#383
#384
#385
#386
0?
#387
#388
#389
#390
#391
0'
1+
0,
1.
01
12
03
14
b11011110 9
1?
#392
#393
#394
#395
#396
0?
#397
#398
#399
#400
#401
1#
1%
1'
0(
1,
0-
1/
02
13
04
15
b10111101 9
1=
1>
1?
#402
#403
#404
#405
#406
0?
#407
#408
#409
#410
#411
0#
0%
1(
0)
1-
0.
10
03
14
05
16
b01000 7
b00111 8
b01111011 9
0=
0>
1?
#412
#413
#414
#415
#416
0?
#417
#418
#419
#420
#421
1#
1%
0'
1)
0*
1.
0/
11
04
15
06
b11110110 9
1=
1>
1?
#422
#423
#424
#425
#426
0?
#427
#428
#429
#430
#431
0#
0%
1'
0(
1*
0+
1/
00
12
05
16
b01001 7
b01000 8
b11101101 9
0=
0>
1?
#432
#433
#434
#435
#436
0?
#437
#438
#439
#440
#441
0'
1(
0)
1+
0,
10
01
13
06
b11011010 9
1?
#442
#443
#444
#445
#446
0?
#447
#448
#449
#450
#451
1'
0(
1)
0*
1,
0-
11
02
14
b10110101 9
1?
#452
#453
#454
#455
#456
0?
#457
#458
#459
#460
#461
1#
1%
1(
0)
1*
0+
1-
0.
12
03
15
b01101011 9
1=
1>
1?
#462
#463
#464
#465
#466
0?
#467
#468
#469
#470
#471
0'
1)
0*
1+
0,
1.
0/
13
04
16
b01010 7
b01001 8
b11010110 9
1?
#472
#473
#474
#475
#476
0?
#477
#478
#479
#480
#481
0#
0%
1'
0(
1*
0+
1,
0-
1/
00
14
05
b01011 7
b01010 8
b10101101 9
0=
0>
1?
#482
#483
#484
#485
#486
0?
#487
#488
#489
#490
#491
1#
1%
0'
1(
0)
1+
0,
1-
0.
10
01
15
06
b01011010 9
1=
1>
1?
#492
#493
#494
#495
#496
0?
#497
#498
#499
#500
#501
0(
1)
0*
1,
0-
1.
0/
11
02
16
b01100 7
b01011 8
b10110100 9
1?
#502
#503
#504
#505
#506
0?
#507
#508
#509
#510
#511
0)
1*
0+
1-
0.
1/
00
12
03
b01101 7
b01100 8
b01101000 9
1?
#512
#513
#514
#515
#516
0?
#517
#518
#519
#520
#521
1'
0*
1+
0,
1.
0/
10
01
13
04
b01110 7
b01101 8
b11010001 9
1?
#522
#523
#524
#525
#526
0?
#527
#528
#529
#530
#531
0#
0%
0'
1(
0+
1,
0-
1/
00
11
02
14
05
b01111 7
b01110 8
b10100010 9
0=
0>
1?
#532
#533
#534
#535
#536
0?
#537
#538
#539
#540
#541
1#
1%
0(
1)
0,
1-
0.
10
01
12
03
15
06
b01000100 9
1=
1>
1?
#542
#543
#544
#545
#546
0?
#547
#548
#549
#550
#551
1'
0)
1*
0-
1.
0/
11
02
13
04
16
b10000 7
b01111 8
b10001001 9
1?
#552
#553
#554
#555
#556
0?
#557
#558
#559
#560
#561
0#
0%
1(
0*
1+
0.
1/
00
12
03
14
05
b10001 7
b10000 8
b00010011 9
0=
0>
1?
#562
#563
#564
#565
#566
0?
#567
#568
#569
#570
#571
1#
1%
1)
0+
1,
0/
10
01
13
04
15
06
b00100111 9
1=
1>
1?
#572
#573
#574
#575
#576
0?
#577
#578
#579
#580
#581
0#
0%
1*
0,
1-
00
11
02
14
05
16
b10010 7
b10001 8
b01001111 9
0=
0>
1?
#582
#583
#584
#585
#586
0?
#587
#588
#589
#590
#591
1#
1%
0'
1+
0-
1.
01
12
03
15
06
b10011110 9
1=
1>
1?
#592
#593
#594
#595
#596
0?
#597
#598
#599
#600
#601
1'
0(
1,
0.
1/
02
13
04
16
b10011 7
b10010 8
b00111101 9
1?
#602
#603
#604
#605
#606
0?
#607
#608
#609
#610
#611
0#
0$
0%
0'
1(
0)
1-
0/
10
03
14
05
b10100 7
b10011 8
b01111010 9
1:
0=
0>
1?
#612
#613
#614
#615
#616
0?
#617
#618
#619
#620
#621
1#
1%
0(
1)
0*
1.
00
11
04
15
06
b11110100 9
1>
1?
#622
#623
#624
#625
#626
0?
#627
#628
#629
#630
#631
0%
0&
1'
0)
1*
0+
1/
01
12
05
16
b10100 8
b11101001 9
1;
1<
0>
1?
