test_run_dir/QueueFlowTester/2021070521433015666564067433570701/dump.vcd
$version Generated by VerilatedVcd $end
$date Mon Jul  5 21:43:32 2021 $end
$timescale 1ps $end

 $scope module TOP $end
  $var wire  1 F clock $end
  $var wire  1 G reset $end
  $scope module QueueFlowTester $end
   $var wire  1 F clock $end
   $var wire  1 F q_clock $end
   $var wire  3 ' q_io_count [2:0] $end
   $var wire  1 % q_io_deq_ready $end
   $var wire  8 : q_io_deq_ready_lo [7:0] $end
   $var wire  1 F q_io_deq_ready_prng_clock $end
   $var wire  1 ( q_io_deq_ready_prng_io_out_0 $end
   $var wire  1 ) q_io_deq_ready_prng_io_out_1 $end
   $var wire  1 2 q_io_deq_ready_prng_io_out_10 $end
   $var wire  1 3 q_io_deq_ready_prng_io_out_11 $end
   $var wire  1 4 q_io_deq_ready_prng_io_out_12 $end
   $var wire  1 5 q_io_deq_ready_prng_io_out_13 $end
   $var wire  1 6 q_io_deq_ready_prng_io_out_14 $end
   $var wire  1 7 q_io_deq_ready_prng_io_out_15 $end
   $var wire  1 * q_io_deq_ready_prng_io_out_2 $end
   $var wire  1 + q_io_deq_ready_prng_io_out_3 $end
   $var wire  1 , q_io_deq_ready_prng_io_out_4 $end
   $var wire  1 - q_io_deq_ready_prng_io_out_5 $end
   $var wire  1 . q_io_deq_ready_prng_io_out_6 $end
   $var wire  1 / q_io_deq_ready_prng_io_out_7 $end
   $var wire  1 0 q_io_deq_ready_prng_io_out_8 $end
   $var wire  1 1 q_io_deq_ready_prng_io_out_9 $end
   $var wire  1 G q_io_deq_ready_prng_reset $end
   $var wire  1 & q_io_deq_valid $end
   $var wire  1 # q_io_enq_ready $end
   $var wire  1 $ q_io_enq_valid $end
   $var wire  1 G q_reset $end
   $var wire  1 G reset $end
   $var wire  5 8 value [4:0] $end
   $var wire  5 9 value_1 [4:0] $end
   $var wire  1 ; wrap $end
   $var wire  1 < wrap_1 $end
   $scope module q $end
    $var wire  1 F clock $end
    $var wire  2 > deq_ptr_value [1:0] $end
    $var wire  1 D do_deq $end
    $var wire  1 C do_enq $end
    $var wire  1 A empty $end
    $var wire  2 = enq_ptr_value [1:0] $end
    $var wire  1 B full $end
    $var wire  3 ' io_count [2:0] $end
    $var wire  1 % io_deq_ready $end
    $var wire  1 & io_deq_valid $end
    $var wire  1 # io_enq_ready $end
    $var wire  1 $ io_enq_valid $end
    $var wire  1 ? maybe_full $end
    $var wire  2 E ptr_diff [1:0] $end
    $var wire  1 @ ptr_match $end
    $var wire  1 G reset $end
   $upscope $end
   $scope module q_io_deq_ready_prng $end
    $var wire  1 F clock $end
    $var wire  1 ( io_out_0 $end
    $var wire  1 ) io_out_1 $end
    $var wire  1 2 io_out_10 $end
    $var wire  1 3 io_out_11 $end
    $var wire  1 4 io_out_12 $end
    $var wire  1 5 io_out_13 $end
    $var wire  1 6 io_out_14 $end
    $var wire  1 7 io_out_15 $end
    $var wire  1 * io_out_2 $end
    $var wire  1 + io_out_3 $end
    $var wire  1 , io_out_4 $end
    $var wire  1 - io_out_5 $end
    $var wire  1 . io_out_6 $end
    $var wire  1 / io_out_7 $end
    $var wire  1 0 io_out_8 $end
    $var wire  1 1 io_out_9 $end
    $var wire  1 G reset $end
    $var wire  1 ( state_0 $end
    $var wire  1 ) state_1 $end
    $var wire  1 2 state_10 $end
    $var wire  1 3 state_11 $end
    $var wire  1 4 state_12 $end
    $var wire  1 5 state_13 $end
    $var wire  1 6 state_14 $end
    $var wire  1 7 state_15 $end
    $var wire  1 * state_2 $end
    $var wire  1 + state_3 $end
    $var wire  1 , state_4 $end
    $var wire  1 - state_5 $end
    $var wire  1 . state_6 $end
    $var wire  1 / state_7 $end
    $var wire  1 0 state_8 $end
    $var wire  1 1 state_9 $end
   $upscope $end
  $upscope $end
 $upscope $end
$enddefinitions $end


#0
1#
1$
0%
1&
b000 '
0(
0)
0*
0+
0,
0-
0.
0/
00
01
02
03
04
05
06
07
b00000 8
b00000 9
b00000000 :
0;
0<
b00 =
b00 >
0?
1@
1A
0B
1C
0D
b00 E
0F
1G
#1
1(
b00000001 :
1F
#2
#3
#4
#5
#6
0F
#7
#8
#9
#10
0G
#11
b001 '
0(
1)
b00001 8
b00000010 :
b01 =
1?
0@
0A
b01 E
1F
#12
#13
#14
#15
#16
0F
#17
#18
#19
#20
#21
b010 '
0)
1*
b00010 8
b00000100 :
b10 =
b10 E
1F
#22
#23
#24
#25
#26
0F
#27
#28
#29
#30
#31
b011 '
0*
1+
b00011 8
b00001000 :
b11 =
b11 E
1F
#32
#33
#34
#35
#36
0F
#37
#38
#39
#40
#41
0#
b100 '
0+
1,
b00100 8
b00010000 :
b00 =
1@
1B
0C
b00 E
1F
#42
#43
#44
#45
#46
0F
#47
#48
#49
#50
#51
0,
1-
b00100000 :
1F
#52
#53
#54
#55
#56
0F
#57
#58
#59
#60
#61
0-
1.
b01000000 :
1F
#62
#63
#64
#65
#66
0F
#67
#68
#69
#70
#71
0.
1/
b10000000 :
1F
#72
#73
#74
#75
#76
0F
#77
#78
#79
#80
#81
0/
10
b00000000 :
1F
#82
#83
#84
#85
#86
0F
#87
#88
#89
#90
#91
00
11
1F
#92
#93
#94
#95
#96
0F
#97
#98
#99
#100
#101
01
12
1F
#102
#103
#104
#105
#106
0F
#107
#108
#109
#110
#111
1(
02
13
b00000001 :
1F
#112
#113
#114
#115
#116
0F
#117
#118
#119
#120
#121
0(
1)
03
14
b00000010 :
1F
#122
#123
#124
#125
#126
0F
#127
#128
#129
#130
#131
1(
0)
1*
04
15
b00000101 :
1F
#132
#133
#134
#135
#136
0F
#137
#138
#139
#140
#141
1)
0*
1+
05
16
b00001011 :
1F
#142
#143
#144
#145
#146
0F
#147
#148
#149
#150
#151
1%
0(
1*
0+
1,
06
17
b00010110 :
1D
1F
#152
#153
#154
#155
#156
0F
#157
#158
#159
#160
#161
1#
0%
b011 '
1(
0)
1+
0,
1-
07
b00001 9
b00101101 :
b01 >
0?
0@
0B
1C
0D
b11 E
1F
#162
#163
#164
#165
#166
0F
#167
#168
#169
#170
#171
0#
b100 '
0(
1)
0*
1,
0-
1.
b00101 8
b01011010 :
b01 =
1?
1@
1B
0C
b00 E
1F
#172
#173
#174
#175
#176
0F
#177
#178
#179
#180
#181
0)
1*
0+
1-
0.
1/
b10110100 :
1F
#182
#183
#184
#185
#186
0F
#187
#188
#189
#190
#191
0*
1+
0,
1.
0/
10
b01101000 :
1F
#192
#193
#194
#195
#196
0F
#197
#198
#199
#200
#201
0+
1,
0-
1/
00
11
b11010000 :
1F
#202
#203
#204
#205
#206
0F
#207
#208
#209
#210
#211
0,
1-
0.
10
01
12
b10100000 :
1F
#212
#213
#214
#215
#216
0F
#217
#218
#219
#220
#221
1(
0-
1.
0/
11
02
13
b01000001 :
1F
#222
#223
#224
#225
#226
0F
#227
#228
#229
#230
#231
0(
1)
0.
1/
00
12
03
14
b10000010 :
1F
#232
#233
#234
#235
#236
0F
#237
#238
#239
#240
#241
0)
1*
0/
10
01
13
04
15
b00000100 :
1F
#242
#243
#244
#245
#246
0F
#247
#248
#249
#250
#251
0*
1+
00
11
02
14
05
16
b00001000 :
1F
#252
#253
#254
#255
#256
0F
#257
#258
#259
#260
#261
1%
1(
0+
1,
01
12
03
15
06
17
b00010001 :
1D
1F
#262
#263
#264
#265
#266
0F
#267
#268
#269
#270
#271
1#
0%
b011 '
0(
1)
0,
1-
02
13
04
16
07
b00010 9
b00100010 :
b10 >
0?
0@
0B
1C
0D
b11 E
1F
#272
#273
#274
#275
#276
0F
#277
#278
#279
#280
#281
0#
1%
b100 '
1(
0)
1*
0-
1.
03
14
05
17
b00110 8
b01000101 :
b10 =
1?
1@
1B
0C
1D
b00 E
1F
#282
#283
#284
#285
#286
0F
#287
#288
#289
#290
#291
1#
b011 '
0(
1)
0*
1+
0.
1/
04
15
06
b00011 9
b10001010 :
b11 >
0?
0@
0B
1C
b11 E
1F
#292
#293
#294
#295
#296
0F
#297
#298
#299
#300
#301
0%
0)
1*
0+
1,
0/
10
05
16
07
b00111 8
b00100 9
b00010100 :
b11 =
b00 >
0D
1F
#302
#303
#304
#305
#306
0F
#307
#308
#309
#310
#311
0#
1%
b100 '
0*
1+
0,
1-
00
11
06
17
b01000 8
b00101000 :
b00 =
1?
1@
1B
0C
1D
b00 E
1F
#312
#313
#314
#315
#316
0F
#317
#318
#319
#320
#321
1#
0%
b011 '
1(
0+
1,
0-
1.
01
12
07
b00101 9
b01010001 :
b01 >
0?
0@
0B
1C
0D
b11 E
1F
#322
#323
#324
#325
#326
0F
#327
#328
#329
#330
#331
0#
b100 '
1)
0,
1-
0.
1/
02
13
b01001 8
b10100011 :
b01 =
1?
1@
1B
0C
b00 E
1F
#332
#333
#334
#335
#336
0F
#337
#338
#339
#340
#341
0(
1*
0-
1.
0/
10
03
14
b01000110 :
1F
#342
#343
#344
#345
#346
0F
#347
#348
#349
#350
#351
1(
0)
1+
0.
1/
00
11
04
15
b10001101 :
1F
#352
#353
#354
#355
#356
0F
#357
#358
#359
#360
#361
1)
0*
1,
0/
10
01
12
05
16
b00011011 :
1F
#362
#363
#364
#365
#366
0F
#367
#368
#369
#370
#371
1%
1*
0+
1-
00
11
02
13
06
17
b00110111 :
1D
1F
#372
#373
#374
#375
#376
0F
#377
#378
#379
#380
#381
1#
0%
b011 '
1+
0,
1.
01
12
03
14
07
b00110 9
b01101111 :
b10 >
0?
0@
0B
1C
0D
b11 E
1F
#382
#383
#384
#385
#386
0F
#387
#388
#389
#390
#391
0#
b100 '
0(
1,
0-
1/
02
13
04
15
b01010 8
b11011110 :
b10 =
1?
1@
1B
0C
b00 E
1F
#392
#393
#394
#395
#396
0F
#397
#398
#399
#400
#401
1(
0)
1-
0.
10
03
14
05
16
b10111101 :
1F
#402
#403
#404
#405
#406
0F
#407
#408
#409
#410
#411
1%
1)
0*
1.
0/
11
04
15
06
17
b01111011 :
1D
1F
#412
#413
#414
#415
#416
0F
#417
#418
#419
#420
#421
1#
0%
b011 '
0(
1*
0+
1/
00
12
05
16
07
b00111 9
b11110110 :
b11 >
0?
0@
0B
1C
0D
b11 E
1F
#422
#423
#424
#425
#426
0F
#427
#428
#429
#430
#431
0#
1%
b100 '
1(
0)
1+
0,
10
01
13
06
17
b01011 8
b11101101 :
b11 =
1?
1@
1B
0C
1D
b00 E
1F
#432
#433
#434
#435
#436
0F
#437
#438
#439
#440
#441
1#
0%
b011 '
0(
1)
0*
1,
0-
11
02
14
07
b01000 9
b11011010 :
b00 >
0?
0@
0B
1C
0D
b11 E
1F
#442
#443
#444
#445
#446
0F
#447
#448
#449
#450
#451
0#
b100 '
1(
0)
1*
0+
1-
0.
12
03
15
b01100 8
b10110101 :
b00 =
1?
1@
1B
0C
b00 E
1F
#452
#453
#454
#455
#456
0F
#457
#458
#459
#460
#461
1)
0*
1+
0,
1.
0/
13
04
16
b01101011 :
1F
#462
#463
#464
#465
#466
0F
#467
#468
#469
#470
#471
1%
0(
1*
0+
1,
0-
1/
00
14
05
17
b11010110 :
1D
1F
#472
#473
#474
#475
#476
0F
#477
#478
#479
#480
#481
1#
b011 '
1(
0)
1+
0,
1-
0.
10
01
15
06
b01001 9
b10101101 :
b01 >
0?
0@
0B
1C
b11 E
1F
#482
#483
#484
#485
#486
0F
#487
#488
#489
#490
#491
0%
0(
1)
0*
1,
0-
1.
0/
11
02
16
07
b01101 8
b01010 9
b01011010 :
b01 =
b10 >
0D
1F
#492
#493
#494
#495
#496
0F
#497
#498
#499
#500
#501
0#
1%
b100 '
0)
1*
0+
1-
0.
1/
00
12
03
17
b01110 8
b10110100 :
b10 =
1?
1@
1B
0C
1D
b00 E
1F
#502
#503
#504
#505
#506
0F
#507
#508
#509
#510
#511
1#
b011 '
0*
1+
0,
1.
0/
10
01
13
04
b01011 9
b01101000 :
b11 >
0?
0@
0B
1C
b11 E
1F
#512
#513
#514
#515
#516
0F
#517
#518
#519
#520
#521
1(
0+
1,
0-
1/
00
11
02
14
05
b01111 8
b01100 9
b11010001 :
b11 =
b00 >
1F
#522
#523
#524
#525
#526
0F
#527
#528
#529
#530
#531
0(
1)
0,
1-
0.
10
01
12
03
15
06
b10000 8
b01101 9
b10100010 :
b00 =
b01 >
1F
#532
#533
#534
#535
#536
0F
#537
#538
#539
#540
#541
0%
0)
1*
0-
1.
0/
11
02
13
04
16
07
b10001 8
b01110 9
b01000100 :
b01 =
b10 >
0D
1F
#542
#543
#544
#545
#546
0F
#547
#548
#549
#550
#551
0#
1%
b100 '
1(
0*
1+
0.
1/
00
12
03
14
05
17
b10010 8
b10001001 :
b10 =
1?
1@
1B
0C
1D
b00 E
1F
#552
#553
#554
#555
#556
0F
#557
#558
#559
#560
#561
1#
b011 '
1)
0+
1,
0/
10
01
13
04
15
06
b01111 9
b00010011 :
b11 >
0?
0@
0B
1C
b11 E
1F
#562
#563
#564
#565
#566
0F
#567
#568
#569
#570
#571
0%
1*
0,
1-
00
11
02
14
05
16
07
b10011 8
b10000 9
b00100111 :
b11 =
b00 >
0D
1F
#572
#573
#574
#575
#576
0F
#577
#578
#579
#580
#581
0#
0$
1%
b100 '
1+
0-
1.
01
12
03
15
06
17
b10100 8
b01001111 :
1;
b00 =
1?
1@
1B
0C
1D
b00 E
1F
#582
#583
#584
#585
#586
0F
#587
#588
#589
#590
#591
1#
0%
b011 '
0(
1,
0.
1/
02
13
04
16
07
b10001 9
b10011110 :
b01 >
0?
0@
0B
0D
b11 E
1F
#592
#593
#594
#595
#596
0F
#597
#598
#599
#600
#601
1%
1(
0)
1-
0/
10
03
14
05
17
b00111101 :
1D
1F
#602
#603
#604
#605
#606
0F
#607
#608
#609
#610
#611
b010 '
0(
1)
0*
1.
00
11
04
15
06
b10010 9
b01111010 :
b10 >
b10 E
1F
#612
#613
#614
#615
#616
0F
#617
#618
#619
#620
#621
0%
b001 '
0)
1*
0+
1/
01
12
05
16
07
b10011 9
b11110100 :
b11 >
0D
b01 E
1F
#622
#623
#624
#625
#626
0F
#627
#628
#629
#630
#631
1%
1(
0*
1+
0,
10
02
13
06
17
b11101001 :
1D
1F
#632
#633
#634
#635
#636
0F
#637
#638
#639
#640
#641
0%
0&
b000 '
1)
0+
1,
0-
11
03
14
07
b10100 9
b11010011 :
1<
b00 >
1@
1A
0D
b00 E
1F
