test_run_dir/LFSRMaxPeriod/202107052135401131696703561272424/dump.vcd
$version Generated by VerilatedVcd $end
$date Mon Jul  5 21:35:41 2021 $end
$timescale 1ps $end

 $scope module TOP $end
  $var wire  1 4 clock $end
  $var wire  1 5 reset $end
  $scope module LFSRMaxPeriod $end
   $var wire  1 4 clock $end
   $var wire  8 3 last [7:0] $end
   $var wire  1 5 reset $end
   $var wire  8 - rv [7:0] $end
   $var wire  4 , rv_hi [3:0] $end
   $var wire  4 + rv_lo [3:0] $end
   $var wire  1 4 rv_prng_clock $end
   $var wire  1 # rv_prng_io_out_0 $end
   $var wire  1 $ rv_prng_io_out_1 $end
   $var wire  1 % rv_prng_io_out_2 $end
   $var wire  1 & rv_prng_io_out_3 $end
   $var wire  1 ' rv_prng_io_out_4 $end
   $var wire  1 ( rv_prng_io_out_5 $end
   $var wire  1 ) rv_prng_io_out_6 $end
   $var wire  1 * rv_prng_io_out_7 $end
   $var wire  1 5 rv_prng_reset $end
   $var wire  8 / seed [7:0] $end
   $var wire  1 . started $end
   $var wire  1 2 wrap $end
   $var wire  8 0 wrap_value [7:0] $end
   $var wire  1 1 wrap_wrap_wrap $end
   $scope module rv_prng $end
    $var wire  1 4 clock $end
    $var wire  1 # io_out_0 $end
    $var wire  1 $ io_out_1 $end
    $var wire  1 % io_out_2 $end
    $var wire  1 & io_out_3 $end
    $var wire  1 ' io_out_4 $end
    $var wire  1 ( io_out_5 $end
    $var wire  1 ) io_out_6 $end
    $var wire  1 * io_out_7 $end
    $var wire  1 5 reset $end
    $var wire  1 # state_0 $end
    $var wire  1 $ state_1 $end
    $var wire  1 % state_2 $end
    $var wire  1 & state_3 $end
    $var wire  1 ' state_4 $end
    $var wire  1 ( state_5 $end
    $var wire  1 ) state_6 $end
    $var wire  1 * state_7 $end
   $upscope $end
  $upscope $end
 $upscope $end
$enddefinitions $end


#0
0#
0$
0%
0&
0'
0(
0)
0*
b0000 +
b0000 ,
b00000000 -
0.
b00000000 /
b00000000 0
01
02
b00000000 3
04
15
#1
1#
b0001 +
b00000001 -
14
#2
#3
#4
#5
#6
04
#7
#8
#9
#10
05
#11
0#
1*
b0000 +
b1000 ,
b10000000 -
1.
b00000001 /
b00000001 3
14
#12
#13
#14
#15
#16
04
#17
#18
#19
#20
#21
1&
1'
1(
1)
0*
b1000 +
b0111 ,
b01111000 -
b00000001 0
b10000000 3
14
#22
#23
#24
#25
#26
04
#27
#28
#29
#30
#31
1%
0&
0'
0(
0)
b0100 +
b0000 ,
b00000100 -
b00000010 0
b01111000 3
14
#32
#33
#34
#35
#36
04
#37
#38
#39
#40
#41
1$
0%
1&
1'
1(
b1010 +
b0011 ,
b00111010 -
b00000011 0
b00000100 3
14
#42
#43
#44
#45
#46
04
#47
#48
#49
#50
#51
1#
0$
1%
0&
0'
b0101 +
b0010 ,
b00100101 -
b00000100 0
b00111010 3
14
#52
#53
#54
#55
#56
04
#57
#58
#59
#60
#61
0#
1$
0%
1'
0(
1*
b0010 +
b1001 ,
b10010010 -
b00000101 0
b00100101 3
14
#62
#63
#64
#65
#66
04
#67
#68
#69
#70
#71
1#
0$
1(
1)
0*
b0001 +
b0111 ,
b01110001 -
b00000110 0
b10010010 3
14
#72
#73
#74
#75
#76
04
#77
#78
#79
#80
#81
0#
1&
0)
1*
b1000 +
b1011 ,
b10111000 -
b00000111 0
b01110001 3
14
#82
#83
#84
#85
#86
04
#87
#88
#89
#90
#91
1%
0&
0'
1)
0*
b0100 +
b0110 ,
b01100100 -
b00001000 0
b10111000 3
14
#92
#93
#94
#95
#96
04
#97
#98
#99
#100
#101
1$
0%
1&
0(
0)
b1010 +
b0000 ,
b00001010 -
b00001001 0
b01100100 3
14
#102
#103
#104
#105
#106
04
#107
#108
#109
#110
#111
1#
0$
1%
1'
1(
b1101 +
b0011 ,
b00111101 -
b00001010 0
b00001010 3
14
#112
#113
#114
#115
#116
04
#117
#118
#119
#120
#121
0#
1$
0(
1*
b1110 +
b1001 ,
b10011110 -
b00001011 0
b00111101 3
14
#122
#123
#124
#125
#126
04
#127
#128
#129
#130
#131
1#
0&
1(
1)
0*
b0111 +
b0111 ,
b01110111 -
b00001100 0
b10011110 3
14
#132
#133
#134
#135
#136
04
#137
#138
#139
#140
#141
0%
1&
0)
1*
b1011 +
b1011 ,
b10111011 -
b00001101 0
b01110111 3
14
#142
#143
#144
#145
#146
04
#147
#148
#149
#150
#151
0$
1%
0(
1)
b1101 +
b1101 ,
b11011101 -
b00001110 0
b10111011 3
14
#152
#153
#154
#155
#156
04
#157
#158
#159
#160
#161
0#
1$
0'
1(
b1110 +
b1110 ,
b11101110 -
b00001111 0
b11011101 3
14
#162
#163
#164
#165
#166
04
#167
#168
#169
#170
#171
1#
0(
0*
b1111 +
b0100 ,
b01001111 -
b00010000 0
b11101110 3
14
#172
#173
#174
#175
#176
04
#177
#178
#179
#180
#181
0&
1(
0)
1*
b0111 +
b1010 ,
b10100111 -
b00010001 0
b01001111 3
14
#182
#183
#184
#185
#186
04
#187
#188
#189
#190
#191
0%
1'
0(
1)
b0011 +
b1101 ,
b11010011 -
b00010010 0
b10100111 3
14
#192
#193
#194
#195
#196
04
#197
#198
#199
#200
#201
0$
1&
0'
1(
b1001 +
b1110 ,
b11101001 -
b00010011 0
b11010011 3
14
#202
#203
#204
#205
#206
04
#207
#208
#209
#210
#211
0#
1%
0&
1'
b0100 +
b1111 ,
b11110100 -
b00010100 0
b11101001 3
14
#212
#213
#214
#215
#216
04
#217
#218
#219
#220
#221
1$
0%
0'
0(
0*
b0010 +
b0100 ,
b01000010 -
b00010101 0
b11110100 3
14
#222
#223
#224
#225
#226
04
#227
#228
#229
#230
#231
1#
0$
1&
1'
0)
b1001 +
b0001 ,
b00011001 -
b00010110 0
b01000010 3
14
#232
#233
#234
#235
#236
04
#237
#238
#239
#240
#241
0#
1%
0'
1*
b1100 +
b1000 ,
b10001100 -
b00010111 0
b00011001 3
14
#242
#243
#244
#245
#246
04
#247
#248
#249
#250
#251
1$
1'
1(
1)
0*
b1110 +
b0111 ,
b01111110 -
b00011000 0
b10001100 3
14
#252
#253
#254
#255
#256
04
#257
#258
#259
#260
#261
1#
0&
0'
0(
0)
b0111 +
b0000 ,
b00000111 -
b00011001 0
b01111110 3
14
#262
#263
#264
#265
#266
04
#267
#268
#269
#270
#271
0%
1*
b0011 +
b1000 ,
b10000011 -
b00011010 0
b00000111 3
14
#272
#273
#274
#275
#276
04
#277
#278
#279
#280
#281
0$
1)
b0001 +
b1100 ,
b11000001 -
b00011011 0
b10000011 3
14
#282
#283
#284
#285
#286
04
#287
#288
#289
#290
#291
0#
1(
b0000 +
b1110 ,
b11100000 -
b00011100 0
b11000001 3
14
#292
#293
#294
#295
#296
04
#297
#298
#299
#300
#301
1&
0(
0*
b1000 +
b0100 ,
b01001000 -
b00011101 0
b11100000 3
14
#302
#303
#304
#305
#306
04
#307
#308
#309
#310
#311
1%
1'
0)
b1100 +
b0001 ,
b00011100 -
b00011110 0
b01001000 3
14
#312
#313
#314
#315
#316
04
#317
#318
#319
#320
#321
1$
0&
1(
b0110 +
b0011 ,
b00110110 -
b00011111 0
b00011100 3
14
#322
#323
#324
#325
#326
04
#327
#328
#329
#330
#331
1#
0%
0'
b0011 +
b0010 ,
b00100011 -
b00100000 0
b00110110 3
14
#332
#333
#334
#335
#336
04
#337
#338
#339
#340
#341
0$
1'
0(
1*
b0001 +
b1001 ,
b10010001 -
b00100001 0
b00100011 3
14
#342
#343
#344
#345
#346
04
#347
#348
#349
#350
#351
0#
1&
0'
1)
b1000 +
b1100 ,
b11001000 -
b00100010 0
b10010001 3
14
#352
#353
#354
#355
#356
04
#357
#358
#359
#360
#361
1%
1'
0*
b1100 +
b0101 ,
b01011100 -
b00100011 0
b11001000 3
14
#362
#363
#364
#365
#366
04
#367
#368
#369
#370
#371
1$
0&
0)
b0110 +
b0001 ,
b00010110 -
b00100100 0
b01011100 3
14
#372
#373
#374
#375
#376
04
#377
#378
#379
#380
#381
1#
0%
1(
b0011 +
b0011 ,
b00110011 -
b00100101 0
b00010110 3
14
#382
#383
#384
#385
#386
04
#387
#388
#389
#390
#391
0$
1&
0(
1*
b1001 +
b1001 ,
b10011001 -
b00100110 0
b00110011 3
14
#392
#393
#394
#395
#396
04
#397
#398
#399
#400
#401
0#
1%
0'
1)
b1100 +
b1100 ,
b11001100 -
b00100111 0
b10011001 3
14
#402
#403
#404
#405
#406
04
#407
#408
#409
#410
#411
1$
1'
0*
b1110 +
b0101 ,
b01011110 -
b00101000 0
b11001100 3
14
#412
#413
#414
#415
#416
04
#417
#418
#419
#420
#421
1#
0&
0)
b0111 +
b0001 ,
b00010111 -
b00101001 0
b01011110 3
14
#422
#423
#424
#425
#426
04
#427
#428
#429
#430
#431
0%
1&
0'
1*
b1011 +
b1000 ,
b10001011 -
b00101010 0
b00010111 3
14
#432
#433
#434
#435
#436
04
#437
#438
#439
#440
#441
0$
1%
0&
1)
b0101 +
b1100 ,
b11000101 -
b00101011 0
b10001011 3
14
#442
#443
#444
#445
#446
04
#447
#448
#449
#450
#451
0#
1$
0%
1(
b0010 +
b1110 ,
b11100010 -
b00101100 0
b11000101 3
14
#452
#453
#454
#455
#456
04
#457
#458
#459
#460
#461
1#
0$
1&
0(
0*
b1001 +
b0100 ,
b01001001 -
b00101101 0
b11100010 3
14
#462
#463
#464
#465
#466
04
#467
#468
#469
#470
#471
0#
1%
0&
1(
0)
1*
b0100 +
b1010 ,
b10100100 -
b00101110 0
b01001001 3
14
#472
#473
#474
#475
#476
04
#477
#478
#479
#480
#481
1$
0%
1&
1)
0*
b1010 +
b0110 ,
b01101010 -
b00101111 0
b10100100 3
14
#482
#483
#484
#485
#486
04
#487
#488
#489
#490
#491
1#
0$
1%
0(
0)
b1101 +
b0000 ,
b00001101 -
b00110000 0
b01101010 3
14
#492
#493
#494
#495
#496
04
#497
#498
#499
#500
#501
0#
1$
0&
1*
b0110 +
b1000 ,
b10000110 -
b00110001 0
b00001101 3
14
#502
#503
#504
#505
#506
04
#507
#508
#509
#510
#511
1#
0%
1&
1'
1(
1)
0*
b1011 +
b0111 ,
b01111011 -
b00110010 0
b10000110 3
14
#512
#513
#514
#515
#516
04
#517
#518
#519
#520
#521
0$
1%
0)
1*
b1101 +
b1011 ,
b10111101 -
b00110011 0
b01111011 3
14
#522
#523
#524
#525
#526
04
#527
#528
#529
#530
#531
0#
1$
0(
1)
b1110 +
b1101 ,
b11011110 -
b00110100 0
b10111101 3
14
#532
#533
#534
#535
#536
04
#537
#538
#539
#540
#541
1#
0&
0*
b0111 +
b0101 ,
b01010111 -
b00110101 0
b11011110 3
14
#542
#543
#544
#545
#546
04
#547
#548
#549
#550
#551
0%
1&
0'
1(
0)
1*
b1011 +
b1010 ,
b10101011 -
b00110110 0
b01010111 3
14
#552
#553
#554
#555
#556
04
#557
#558
#559
#560
#561
0$
1%
0&
1'
0(
1)
b0101 +
b1101 ,
b11010101 -
b00110111 0
b10101011 3
14
#562
#563
#564
#565
#566
04
#567
#568
#569
#570
#571
0#
1$
0%
1&
0'
1(
b1010 +
b1110 ,
b11101010 -
b00111000 0
b11010101 3
14
#572
#573
#574
#575
#576
04
#577
#578
#579
#580
#581
1#
0$
1%
0(
0*
b1101 +
b0100 ,
b01001101 -
b00111001 0
b11101010 3
14
#582
#583
#584
#585
#586
04
#587
#588
#589
#590
#591
0#
1$
0&
1(
0)
1*
b0110 +
b1010 ,
b10100110 -
b00111010 0
b01001101 3
14
#592
#593
#594
#595
#596
04
#597
#598
#599
#600
#601
1#
0%
1&
1)
0*
b1011 +
b0110 ,
b01101011 -
b00111011 0
b10100110 3
14
#602
#603
#604
#605
#606
04
#607
#608
#609
#610
#611
0$
1%
0&
1'
0)
1*
b0101 +
b1011 ,
b10110101 -
b00111100 0
b01101011 3
14
#612
#613
#614
#615
#616
04
#617
#618
#619
#620
#621
0#
1$
0%
1&
0(
1)
b1010 +
b1101 ,
b11011010 -
b00111101 0
b10110101 3
14
#622
#623
#624
#625
#626
04
#627
#628
#629
#630
#631
1#
0$
1%
0&
0*
b0101 +
b0101 ,
b01010101 -
b00111110 0
b11011010 3
14
#632
#633
#634
#635
#636
04
#637
#638
#639
#640
#641
0#
1$
0%
1&
0'
1(
0)
1*
b1010 +
b1010 ,
b10101010 -
b00111111 0
b01010101 3
14
#642
#643
#644
#645
#646
04
#647
#648
#649
#650
#651
1#
0$
1%
1)
0*
b1101 +
b0110 ,
b01101101 -
b01000000 0
b10101010 3
14
#652
#653
#654
#655
#656
04
#657
#658
#659
#660
#661
0#
1$
0&
1'
0)
1*
b0110 +
b1011 ,
b10110110 -
b01000001 0
b01101101 3
14
#662
#663
#664
#665
#666
04
#667
#668
#669
#670
#671
1#
0%
0'
1)
0*
b0011 +
b0110 ,
b01100011 -
b01000010 0
b10110110 3
14
#672
#673
#674
#675
#676
04
#677
#678
#679
#680
#681
0$
1'
0)
1*
b0001 +
b1011 ,
b10110001 -
b01000011 0
b01100011 3
14
#682
#683
#684
#685
#686
04
#687
#688
#689
#690
#691
0#
1&
0(
1)
b1000 +
b1101 ,
b11011000 -
b01000100 0
b10110001 3
14
#692
#693
#694
#695
#696
04
#697
#698
#699
#700
#701
1%
0&
0*
b0100 +
b0101 ,
b01010100 -
b01000101 0
b11011000 3
14
#702
#703
#704
#705
#706
04
#707
#708
#709
#710
#711
1$
0%
0)
b0010 +
b0001 ,
b00010010 -
b01000110 0
b01010100 3
14
#712
#713
#714
#715
#716
04
#717
#718
#719
#720
#721
1#
0$
1(
b0001 +
b0011 ,
b00110001 -
b01000111 0
b00010010 3
14
#722
#723
#724
#725
#726
04
#727
#728
#729
#730
#731
0#
1&
0(
1*
b1000 +
b1001 ,
b10011000 -
b01001000 0
b00110001 3
14
#732
#733
#734
#735
#736
04
#737
#738
#739
#740
#741
1%
0&
1(
1)
0*
b0100 +
b0111 ,
b01110100 -
b01001001 0
b10011000 3
14
#742
#743
#744
#745
#746
04
#747
#748
#749
#750
#751
1$
0%
0'
0(
0)
b0010 +
b0000 ,
b00000010 -
b01001010 0
b01110100 3
14
#752
#753
#754
#755
#756
04
#757
#758
#759
#760
#761
1#
0$
1&
1'
1(
b1001 +
b0011 ,
b00111001 -
b01001011 0
b00000010 3
14
#762
#763
#764
#765
#766
04
#767
#768
#769
#770
#771
0#
1%
0(
1*
b1100 +
b1001 ,
b10011100 -
b01001100 0
b00111001 3
14
#772
#773
#774
#775
#776
04
#777
#778
#779
#780
#781
1$
0&
1(
1)
0*
b0110 +
b0111 ,
b01110110 -
b01001101 0
b10011100 3
14
#782
#783
#784
#785
#786
04
#787
#788
#789
#790
#791
1#
0%
0'
0(
0)
b0011 +
b0000 ,
b00000011 -
b01001110 0
b01110110 3
14
#792
#793
#794
#795
#796
04
#797
#798
#799
#800
#801
0$
1*
b0001 +
b1000 ,
b10000001 -
b01001111 0
b00000011 3
14
#802
#803
#804
#805
#806
04
#807
#808
#809
#810
#811
0#
1)
b0000 +
b1100 ,
b11000000 -
b01010000 0
b10000001 3
14
#812
#813
#814
#815
#816
04
#817
#818
#819
#820
#821
1&
1'
0*
b1000 +
b0101 ,
b01011000 -
b01010001 0
b11000000 3
14
#822
#823
#824
#825
#826
04
#827
#828
#829
#830
#831
1%
0&
0)
b0100 +
b0001 ,
b00010100 -
b01010010 0
b01011000 3
14
#832
#833
#834
#835
#836
04
#837
#838
#839
#840
#841
1$
0%
1(
b0010 +
b0011 ,
b00110010 -
b01010011 0
b00010100 3
14
#842
#843
#844
#845
#846
04
#847
#848
#849
#850
#851
1#
0$
0'
b0001 +
b0010 ,
b00100001 -
b01010100 0
b00110010 3
14
#852
#853
#854
#855
#856
04
#857
#858
#859
#860
#861
0#
1'
0(
1*
b0000 +
b1001 ,
b10010000 -
b01010101 0
b00100001 3
14
#862
#863
#864
#865
#866
04
#867
#868
#869
#870
#871
1(
1)
0*
b0111 ,
b01110000 -
b01010110 0
b10010000 3
14
#872
#873
#874
#875
#876
04
#877
#878
#879
#880
#881
0'
0(
0)
b0000 ,
b00000000 -
b01010111 0
b01110000 3
14
#882
#883
#884
#885
#886
04
#887
#888
#889
#890
#891
1&
1'
1(
b1000 +
b0011 ,
b00111000 -
b01011000 0
b00000000 3
14
#892
#893
#894
#895
#896
04
#897
#898
#899
#900
#901
1%
0&
0'
b0100 +
b0010 ,
b00100100 -
b01011001 0
b00111000 3
14
#902
#903
#904
#905
#906
04
#907
#908
#909
#910
#911
1$
0%
1&
b1010 +
b00101010 -
b01011010 0
b00100100 3
14
#912
#913
#914
#915
#916
04
#917
#918
#919
#920
#921
1#
0$
1%
b1101 +
b00101101 -
b01011011 0
b00101010 3
14
#922
#923
#924
#925
#926
04
#927
#928
#929
#930
#931
0#
1$
0&
1'
0(
1*
b0110 +
b1001 ,
b10010110 -
b01011100 0
b00101101 3
14
#932
#933
#934
#935
#936
04
#937
#938
#939
#940
#941
1#
0%
1(
1)
0*
b0011 +
b0111 ,
b01110011 -
b01011101 0
b10010110 3
14
#942
#943
#944
#945
#946
04
#947
#948
#949
#950
#951
0$
1&
0)
1*
b1001 +
b1011 ,
b10111001 -
b01011110 0
b01110011 3
14
#952
#953
#954
#955
#956
04
#957
#958
#959
#960
#961
0#
1%
0(
1)
b1100 +
b1101 ,
b11011100 -
b01011111 0
b10111001 3
14
#962
#963
#964
#965
#966
04
#967
#968
#969
#970
#971
1$
0&
0*
b0110 +
b0101 ,
b01010110 -
b01100000 0
b11011100 3
14
#972
#973
#974
#975
#976
04
#977
#978
#979
#980
#981
1#
0%
0)
b0011 +
b0001 ,
b00010011 -
b01100001 0
b01010110 3
14
#982
#983
#984
#985
#986
04
#987
#988
#989
#990
#991
0$
1&
0'
1*
b1001 +
b1000 ,
b10001001 -
b01100010 0
b00010011 3
14
#992
#993
#994
#995
#996
04
#997
#998
#999
#1000
#1001
0#
1%
0&
1)
b0100 +
b1100 ,
b11000100 -
b01100011 0
b10001001 3
14
#1002
#1003
#1004
#1005
#1006
04
#1007
#1008
#1009
#1010
#1011
1$
0%
1&
1'
0*
b1010 +
b0101 ,
b01011010 -
b01100100 0
b11000100 3
14
#1012
#1013
#1014
#1015
#1016
04
#1017
#1018
#1019
#1020
#1021
1#
0$
1%
0&
0)
b0101 +
b0001 ,
b00010101 -
b01100101 0
b01011010 3
14
#1022
#1023
#1024
#1025
#1026
04
#1027
#1028
#1029
#1030
#1031
0#
1$
0%
1&
0'
1*
b1010 +
b1000 ,
b10001010 -
b01100110 0
b00010101 3
14
#1032
#1033
#1034
#1035
#1036
04
#1037
#1038
#1039
#1040
#1041
1#
0$
1%
1'
1(
1)
0*
b1101 +
b0111 ,
b01111101 -
b01100111 0
b10001010 3
14
#1042
#1043
#1044
#1045
#1046
04
#1047
#1048
#1049
#1050
#1051
0#
1$
0)
1*
b1110 +
b1011 ,
b10111110 -
b01101000 0
b01111101 3
14
#1052
#1053
#1054
#1055
#1056
04
#1057
#1058
#1059
#1060
#1061
1#
0&
0'
1)
0*
b0111 +
b0110 ,
b01100111 -
b01101001 0
b10111110 3
14
#1062
#1063
#1064
#1065
#1066
04
#1067
#1068
#1069
#1070
#1071
0%
1'
0)
1*
b0011 +
b1011 ,
b10110011 -
b01101010 0
b01100111 3
14
#1072
#1073
#1074
#1075
#1076
04
#1077
#1078
#1079
#1080
#1081
0$
1&
0(
1)
b1001 +
b1101 ,
b11011001 -
b01101011 0
b10110011 3
14
#1082
#1083
#1084
#1085
#1086
04
#1087
#1088
#1089
#1090
#1091
0#
1%
0'
1(
b1100 +
b1110 ,
b11101100 -
b01101100 0
b11011001 3
14
#1092
#1093
#1094
#1095
#1096
04
#1097
#1098
#1099
#1100
#1101
1$
0(
0*
b1110 +
b0100 ,
b01001110 -
b01101101 0
b11101100 3
14
#1102
#1103
#1104
#1105
#1106
04
#1107
#1108
#1109
#1110
#1111
1#
1'
0)
b1111 +
b0001 ,
b00011111 -
b01101110 0
b01001110 3
14
#1112
#1113
#1114
#1115
#1116
04
#1117
#1118
#1119
#1120
#1121
0'
1*
b1000 ,
b10001111 -
b01101111 0
b00011111 3
14
#1122
#1123
#1124
#1125
#1126
04
#1127
#1128
#1129
#1130
#1131
0&
1)
b0111 +
b1100 ,
b11000111 -
b01110000 0
b10001111 3
14
#1132
#1133
#1134
#1135
#1136
04
#1137
#1138
#1139
#1140
#1141
0%
1(
b0011 +
b1110 ,
b11100011 -
b01110001 0
b11000111 3
14
#1142
#1143
#1144
#1145
#1146
04
#1147
#1148
#1149
#1150
#1151
0$
1'
b0001 +
b1111 ,
b11110001 -
b01110010 0
b11100011 3
14
#1152
#1153
#1154
#1155
#1156
04
#1157
#1158
#1159
#1160
#1161
0#
1&
b1000 +
b11111000 -
b01110011 0
b11110001 3
14
#1162
#1163
#1164
#1165
#1166
04
#1167
#1168
#1169
#1170
#1171
1%
0&
0'
0(
0*
b0100 +
b0100 ,
b01000100 -
b01110100 0
b11111000 3
14
#1172
#1173
#1174
#1175
#1176
04
#1177
#1178
#1179
#1180
#1181
1$
0%
1&
1'
0)
b1010 +
b0001 ,
b00011010 -
b01110101 0
b01000100 3
14
#1182
#1183
#1184
#1185
#1186
04
#1187
#1188
#1189
#1190
#1191
1#
0$
1%
0&
1(
b0101 +
b0011 ,
b00110101 -
b01110110 0
b00011010 3
14
#1192
#1193
#1194
#1195
#1196
04
#1197
#1198
#1199
#1200
#1201
0#
1$
0%
1&
0(
1*
b1010 +
b1001 ,
b10011010 -
b01110111 0
b00110101 3
14
#1202
#1203
#1204
#1205
#1206
04
#1207
#1208
#1209
#1210
#1211
1#
0$
1%
0&
1(
1)
0*
b0101 +
b0111 ,
b01110101 -
b01111000 0
b10011010 3
14
#1212
#1213
#1214
#1215
#1216
04
#1217
#1218
#1219
#1220
#1221
0#
1$
0%
1&
0)
1*
b1010 +
b1011 ,
b10111010 -
b01111001 0
b01110101 3
14
#1222
#1223
#1224
#1225
#1226
04
#1227
#1228
#1229
#1230
#1231
1#
0$
1%
0&
0'
1)
0*
b0101 +
b0110 ,
b01100101 -
b01111010 0
b10111010 3
14
#1232
#1233
#1234
#1235
#1236
04
#1237
#1238
#1239
#1240
#1241
0#
1$
0%
1'
0)
1*
b0010 +
b1011 ,
b10110010 -
b01111011 0
b01100101 3
14
#1242
#1243
#1244
#1245
#1246
04
#1247
#1248
#1249
#1250
#1251
1#
0$
0'
1)
0*
b0001 +
b0110 ,
b01100001 -
b01111100 0
b10110010 3
14
#1252
#1253
#1254
#1255
#1256
04
#1257
#1258
#1259
#1260
#1261
0#
1'
0)
1*
b0000 +
b1011 ,
b10110000 -
b01111101 0
b01100001 3
14
#1262
#1263
#1264
#1265
#1266
04
#1267
#1268
#1269
#1270
#1271
0'
1)
0*
b0110 ,
b01100000 -
b01111110 0
b10110000 3
14
#1272
#1273
#1274
#1275
#1276
04
#1277
#1278
#1279
#1280
#1281
1&
0(
0)
b1000 +
b0000 ,
b00001000 -
b01111111 0
b01100000 3
14
#1282
#1283
#1284
#1285
#1286
04
#1287
#1288
#1289
#1290
#1291
1%
1'
1(
b1100 +
b0011 ,
b00111100 -
b10000000 0
b00001000 3
14
#1292
#1293
#1294
#1295
#1296
04
#1297
#1298
#1299
#1300
#1301
1$
0&
0'
b0110 +
b0010 ,
b00100110 -
b10000001 0
b00111100 3
14
#1302
#1303
#1304
#1305
#1306
04
#1307
#1308
#1309
#1310
#1311
1#
0%
1&
b1011 +
b00101011 -
b10000010 0
b00100110 3
14
#1312
#1313
#1314
#1315
#1316
04
#1317
#1318
#1319
#1320
#1321
0$
1%
0&
1'
0(
1*
b0101 +
b1001 ,
b10010101 -
b10000011 0
b00101011 3
14
#1322
#1323
#1324
#1325
#1326
04
#1327
#1328
#1329
#1330
#1331
0#
1$
0%
1&
0'
1)
b1010 +
b1100 ,
b11001010 -
b10000100 0
b10010101 3
14
#1332
#1333
#1334
#1335
#1336
04
#1337
#1338
#1339
#1340
#1341
1#
0$
1%
1'
0*
b1101 +
b0101 ,
b01011101 -
b10000101 0
b11001010 3
14
#1342
#1343
#1344
#1345
#1346
04
#1347
#1348
#1349
#1350
#1351
0#
1$
0'
1(
0)
1*
b1110 +
b1010 ,
b10101110 -
b10000110 0
b01011101 3
14
#1352
#1353
#1354
#1355
#1356
04
#1357
#1358
#1359
#1360
#1361
1#
1)
0*
b1111 +
b0110 ,
b01101111 -
b10000111 0
b10101110 3
14
#1362
#1363
#1364
#1365
#1366
04
#1367
#1368
#1369
#1370
#1371
0&
1'
0)
1*
b0111 +
b1011 ,
b10110111 -
b10001000 0
b01101111 3
14
#1372
#1373
#1374
#1375
#1376
04
#1377
#1378
#1379
#1380
#1381
0%
1&
0(
1)
b1011 +
b1101 ,
b11011011 -
b10001001 0
b10110111 3
14
#1382
#1383
#1384
#1385
#1386
04
#1387
#1388
#1389
#1390
#1391
0$
1%
0'
1(
b1101 +
b1110 ,
b11101101 -
b10001010 0
b11011011 3
14
#1392
#1393
#1394
#1395
#1396
04
#1397
#1398
#1399
#1400
#1401
0#
1$
0&
1'
b0110 +
b1111 ,
b11110110 -
b10001011 0
b11101101 3
14
#1402
#1403
#1404
#1405
#1406
04
#1407
#1408
#1409
#1410
#1411
1#
0%
0'
0(
0*
b0011 +
b0100 ,
b01000011 -
b10001100 0
b11110110 3
14
#1412
#1413
#1414
#1415
#1416
04
#1417
#1418
#1419
#1420
#1421
0$
1(
0)
1*
b0001 +
b1010 ,
b10100001 -
b10001101 0
b01000011 3
14
#1422
#1423
#1424
#1425
#1426
04
#1427
#1428
#1429
#1430
#1431
0#
1'
0(
1)
b0000 +
b1101 ,
b11010000 -
b10001110 0
b10100001 3
14
#1432
#1433
#1434
#1435
#1436
04
#1437
#1438
#1439
#1440
#1441
0*
b0101 ,
b01010000 -
b10001111 0
b11010000 3
14
#1442
#1443
#1444
#1445
#1446
04
#1447
#1448
#1449
#1450
#1451
0)
b0001 ,
b00010000 -
b10010000 0
b01010000 3
14
#1452
#1453
#1454
#1455
#1456
04
#1457
#1458
#1459
#1460
#1461
1(
b0011 ,
b00110000 -
b10010001 0
b00010000 3
14
#1462
#1463
#1464
#1465
#1466
04
#1467
#1468
#1469
#1470
#1471
0'
b0010 ,
b00100000 -
b10010010 0
b00110000 3
14
#1472
#1473
#1474
#1475
#1476
04
#1477
#1478
#1479
#1480
#1481
1&
b1000 +
b00101000 -
b10010011 0
b00100000 3
14
#1482
#1483
#1484
#1485
#1486
04
#1487
#1488
#1489
#1490
#1491
1%
b1100 +
b00101100 -
b10010100 0
b00101000 3
14
#1492
#1493
#1494
#1495
#1496
04
#1497
#1498
#1499
#1500
#1501
1$
b1110 +
b00101110 -
b10010101 0
b00101100 3
14
#1502
#1503
#1504
#1505
#1506
04
#1507
#1508
#1509
#1510
#1511
1#
b1111 +
b00101111 -
b10010110 0
b00101110 3
14
#1512
#1513
#1514
#1515
#1516
04
#1517
#1518
#1519
#1520
#1521
0&
1'
0(
1*
b0111 +
b1001 ,
b10010111 -
b10010111 0
b00101111 3
14
#1522
#1523
#1524
#1525
#1526
04
#1527
#1528
#1529
#1530
#1531
0%
1&
0'
1)
b1011 +
b1100 ,
b11001011 -
b10011000 0
b10010111 3
14
#1532
#1533
#1534
#1535
#1536
04
#1537
#1538
#1539
#1540
#1541
0$
1%
0&
1(
b0101 +
b1110 ,
b11100101 -
b10011001 0
b11001011 3
14
#1542
#1543
#1544
#1545
#1546
04
#1547
#1548
#1549
#1550
#1551
0#
1$
0%
1'
b0010 +
b1111 ,
b11110010 -
b10011010 0
b11100101 3
14
#1552
#1553
#1554
#1555
#1556
04
#1557
#1558
#1559
#1560
#1561
1#
0$
0'
0(
0*
b0001 +
b0100 ,
b01000001 -
b10011011 0
b11110010 3
14
#1562
#1563
#1564
#1565
#1566
04
#1567
#1568
#1569
#1570
#1571
0#
1(
0)
1*
b0000 +
b1010 ,
b10100000 -
b10011100 0
b01000001 3
14
#1572
#1573
#1574
#1575
#1576
04
#1577
#1578
#1579
#1580
#1581
1&
1)
0*
b1000 +
b0110 ,
b01101000 -
b10011101 0
b10100000 3
14
#1582
#1583
#1584
#1585
#1586
04
#1587
#1588
#1589
#1590
#1591
1%
0(
0)
b1100 +
b0000 ,
b00001100 -
b10011110 0
b01101000 3
14
#1592
#1593
#1594
#1595
#1596
04
#1597
#1598
#1599
#1600
#1601
1$
1'
1(
b1110 +
b0011 ,
b00111110 -
b10011111 0
b00001100 3
14
#1602
#1603
#1604
#1605
#1606
04
#1607
#1608
#1609
#1610
#1611
1#
0&
0'
b0111 +
b0010 ,
b00100111 -
b10100000 0
b00111110 3
14
#1612
#1613
#1614
#1615
#1616
04
#1617
#1618
#1619
#1620
#1621
0%
1'
0(
1*
b0011 +
b1001 ,
b10010011 -
b10100001 0
b00100111 3
14
#1622
#1623
#1624
#1625
#1626
04
#1627
#1628
#1629
#1630
#1631
0$
1&
0'
1)
b1001 +
b1100 ,
b11001001 -
b10100010 0
b10010011 3
14
#1632
#1633
#1634
#1635
#1636
04
#1637
#1638
#1639
#1640
#1641
0#
1%
0&
1(
b0100 +
b1110 ,
b11100100 -
b10100011 0
b11001001 3
14
#1642
#1643
#1644
#1645
#1646
04
#1647
#1648
#1649
#1650
#1651
1$
0%
1&
0(
0*
b1010 +
b0100 ,
b01001010 -
b10100100 0
b11100100 3
14
#1652
#1653
#1654
#1655
#1656
04
#1657
#1658
#1659
#1660
#1661
1#
0$
1%
1'
0)
b1101 +
b0001 ,
b00011101 -
b10100101 0
b01001010 3
14
#1662
#1663
#1664
#1665
#1666
04
#1667
#1668
#1669
#1670
#1671
0#
1$
0'
1*
b1110 +
b1000 ,
b10001110 -
b10100110 0
b00011101 3
14
