test_run_dir/TblTester/2021070521400216931128141407636316/dump.vcd
$version Generated by VerilatedVcd $end
$date Mon Jul  5 21:40:03 2021 $end
$timescale 1ps $end

 $scope module TOP $end
  $var wire  1 2 clock $end
  $var wire  1 3 reset $end
  $scope module TblTester $end
   $var wire  1 2 clock $end
   $var wire  3 ' cnt [2:0] $end
   $var wire  1 2 dut_clock $end
   $var wire  3 % dut_io_d [2:0] $end
   $var wire  3 & dut_io_o [2:0] $end
   $var wire  3 $ dut_io_ri [2:0] $end
   $var wire  3 # dut_io_wi [2:0] $end
   $var wire  1 3 reset $end
   $var wire  1 ( wrap_wrap $end
   $scope module dut $end
    $var wire  1 2 clock $end
    $var wire  3 % io_d [2:0] $end
    $var wire  3 & io_o [2:0] $end
    $var wire  3 $ io_ri [2:0] $end
    $var wire  3 # io_wi [2:0] $end
    $var wire  3 ) m(0) [2:0] $end
    $var wire  3 * m(1) [2:0] $end
    $var wire  3 + m(2) [2:0] $end
    $var wire  3 , m(3) [2:0] $end
    $var wire  3 - m(4) [2:0] $end
    $var wire  3 . m(5) [2:0] $end
    $var wire  3 / m(6) [2:0] $end
    $var wire  3 0 m(7) [2:0] $end
    $var wire  3 # m_MPORT_addr [2:0] $end
    $var wire  3 % m_MPORT_data [2:0] $end
    $var wire  1 4 m_MPORT_en $end
    $var wire  1 4 m_MPORT_mask $end
    $var wire  3 $ m_io_o_MPORT_addr [2:0] $end
    $var wire  3 1 m_io_o_MPORT_data [2:0] $end
    $var wire  1 4 m_io_o_MPORT_en $end
   $upscope $end
  $upscope $end
 $upscope $end
$enddefinitions $end


#0
b101 #
b001 $
b011 %
b000 &
b000 '
0(
b000 )
b000 *
b000 +
b000 ,
b000 -
b000 .
b000 /
b000 0
b000 1
02
13
14
#1
b011 .
12
#2
#3
#4
#5
#6
02
#7
#8
#9
#10
03
#11
b110 #
b101 $
b011 &
b001 '
b011 1
12
#12
#13
#14
#15
#16
02
#17
#18
#19
#20
#21
b101 #
b110 $
b000 %
b010 '
b011 /
12
#22
#23
#24
#25
#26
02
#27
#28
#29
#30
#31
b000 #
b101 $
b010 %
b000 &
b011 '
b000 .
b000 1
12
#32
#33
#34
#35
#36
02
#37
#38
#39
#40
#41
b010 #
b000 $
b101 %
b010 &
b100 '
b010 )
b010 1
12
#42
#43
#44
#45
#46
02
#47
#48
#49
#50
#51
b000 #
b010 $
b001 %
b101 &
b101 '
b101 +
b101 1
12
#52
#53
#54
#55
#56
02
#57
#58
#59
#60
#61
b110 #
b000 $
b110 %
b001 &
b110 '
b001 )
b001 1
12
#62
#63
#64
#65
#66
02
#67
#68
#69
#70
#71
b001 #
b110 $
b111 %
b110 &
b111 '
1(
b110 /
b110 1
12
