test_run_dir/LFSRMaxPeriod/2021070521362510089893353396590974/dump.vcd
$version Generated by VerilatedVcd $end
$date Mon Jul  5 21:36:27 2021 $end
$timescale 1ps $end

 $scope module TOP $end
  $var wire  1 5 clock $end
  $var wire  1 6 reset $end
  $scope module LFSRMaxPeriod $end
   $var wire  1 5 clock $end
   $var wire  9 4 last [8:0] $end
   $var wire  1 6 reset $end
   $var wire  9 . rv [8:0] $end
   $var wire  5 - rv_hi [4:0] $end
   $var wire  4 , rv_lo [3:0] $end
   $var wire  1 5 rv_prng_clock $end
   $var wire  1 # rv_prng_io_out_0 $end
   $var wire  1 $ rv_prng_io_out_1 $end
   $var wire  1 % rv_prng_io_out_2 $end
   $var wire  1 & rv_prng_io_out_3 $end
   $var wire  1 ' rv_prng_io_out_4 $end
   $var wire  1 ( rv_prng_io_out_5 $end
   $var wire  1 ) rv_prng_io_out_6 $end
   $var wire  1 * rv_prng_io_out_7 $end
   $var wire  1 + rv_prng_io_out_8 $end
   $var wire  1 6 rv_prng_reset $end
   $var wire  9 0 seed [8:0] $end
   $var wire  1 / started $end
   $var wire  1 3 wrap $end
   $var wire  9 1 wrap_value [8:0] $end
   $var wire  1 2 wrap_wrap_wrap $end
   $scope module rv_prng $end
    $var wire  1 5 clock $end
    $var wire  1 # io_out_0 $end
    $var wire  1 $ io_out_1 $end
    $var wire  1 % io_out_2 $end
    $var wire  1 & io_out_3 $end
    $var wire  1 ' io_out_4 $end
    $var wire  1 ( io_out_5 $end
    $var wire  1 ) io_out_6 $end
    $var wire  1 * io_out_7 $end
    $var wire  1 + io_out_8 $end
    $var wire  1 6 reset $end
    $var wire  1 # state_0 $end
    $var wire  1 $ state_1 $end
    $var wire  1 % state_2 $end
    $var wire  1 & state_3 $end
    $var wire  1 ' state_4 $end
    $var wire  1 ( state_5 $end
    $var wire  1 ) state_6 $end
    $var wire  1 * state_7 $end
    $var wire  1 + state_8 $end
   $upscope $end
  $upscope $end
 $upscope $end
$enddefinitions $end


#0
0#
0$
0%
0&
0'
0(
0)
0*
0+
b0000 ,
b00000 -
b000000000 .
0/
b000000000 0
b000000000 1
02
03
b000000000 4
05
16
#1
1#
b0001 ,
b000000001 .
15
#2
#3
#4
#5
#6
05
#7
#8
#9
#10
06
#11
0#
1$
b0010 ,
b000000010 .
1/
b000000001 0
b000000001 4
15
#12
#13
#14
#15
#16
05
#17
#18
#19
#20
#21
0$
1%
b0100 ,
b000000100 .
b000000001 1
b000000010 4
15
#22
#23
#24
#25
#26
05
#27
#28
#29
#30
#31
0%
1&
b1000 ,
b000001000 .
b000000010 1
b000000100 4
15
#32
#33
#34
#35
#36
05
#37
#38
#39
#40
#41
0&
1'
b0000 ,
b00001 -
b000010000 .
b000000011 1
b000001000 4
15
#42
#43
#44
#45
#46
05
#47
#48
#49
#50
#51
1#
0'
1(
b0001 ,
b00010 -
b000100001 .
b000000100 1
b000010000 4
15
#52
#53
#54
#55
#56
05
#57
#58
#59
#60
#61
1$
0(
1)
b0011 ,
b00100 -
b001000011 .
b000000101 1
b000100001 4
15
#62
#63
#64
#65
#66
05
#67
#68
#69
#70
#71
0#
1%
0)
1*
b0110 ,
b01000 -
b010000110 .
b000000110 1
b001000011 4
15
#72
#73
#74
#75
#76
05
#77
#78
#79
#80
#81
1#
0$
1&
0*
1+
b1101 ,
b10000 -
b100001101 .
b000000111 1
b010000110 4
15
#82
#83
#84
#85
#86
05
#87
#88
#89
#90
#91
1$
0%
1'
0+
b1011 ,
b00001 -
b000011011 .
b000001000 1
b100001101 4
15
#92
#93
#94
#95
#96
05
#97
#98
#99
#100
#101
1%
0&
1(
b0111 ,
b00011 -
b000110111 .
b000001001 1
b000011011 4
15
#102
#103
#104
#105
#106
05
#107
#108
#109
#110
#111
0#
1&
0'
1)
b1110 ,
b00110 -
b001101110 .
b000001010 1
b000110111 4
15
#112
#113
#114
#115
#116
05
#117
#118
#119
#120
#121
1#
0$
1'
0(
1*
b1101 ,
b01101 -
b011011101 .
b000001011 1
b001101110 4
15
#122
#123
#124
#125
#126
05
#127
#128
#129
#130
#131
0#
1$
0%
1(
0)
1+
b1010 ,
b11011 -
b110111010 .
b000001100 1
b011011101 4
15
#132
#133
#134
#135
#136
05
#137
#138
#139
#140
#141
0$
1%
0&
1)
0*
b0100 ,
b10111 -
b101110100 .
b000001101 1
b110111010 4
15
#142
#143
#144
#145
#146
05
#147
#148
#149
#150
#151
1#
0%
1&
0'
1*
0+
b1001 ,
b01110 -
b011101001 .
b000001110 1
b101110100 4
15
#152
#153
#154
#155
#156
05
#157
#158
#159
#160
#161
0#
1$
0&
1'
0(
1+
b0010 ,
b11101 -
b111010010 .
b000001111 1
b011101001 4
15
#162
#163
#164
#165
#166
05
#167
#168
#169
#170
#171
1#
0$
1%
0'
1(
0)
b0101 ,
b11010 -
b110100101 .
b000010000 1
b111010010 4
15
#172
#173
#174
#175
#176
05
#177
#178
#179
#180
#181
1$
0%
1&
0(
1)
0*
b1011 ,
b10100 -
b101001011 .
b000010001 1
b110100101 4
15
#182
#183
#184
#185
#186
05
#187
#188
#189
#190
#191
1%
0&
1'
0)
1*
0+
b0111 ,
b01001 -
b010010111 .
b000010010 1
b101001011 4
15
#192
#193
#194
#195
#196
05
#197
#198
#199
#200
#201
0#
1&
0'
1(
0*
1+
b1110 ,
b10010 -
b100101110 .
b000010011 1
b010010111 4
15
#202
#203
#204
#205
#206
05
#207
#208
#209
#210
#211
0$
1'
0(
1)
0+
b1100 ,
b00101 -
b001011100 .
b000010100 1
b100101110 4
15
#212
#213
#214
#215
#216
05
#217
#218
#219
#220
#221
1#
0%
1(
0)
1*
b1001 ,
b01011 -
b010111001 .
b000010101 1
b001011100 4
15
#222
#223
#224
#225
#226
05
#227
#228
#229
#230
#231
1$
0&
1)
0*
1+
b0011 ,
b10111 -
b101110011 .
b000010110 1
b010111001 4
15
#232
#233
#234
#235
#236
05
#237
#238
#239
#240
#241
1%
0'
1*
0+
b0111 ,
b01110 -
b011100111 .
b000010111 1
b101110011 4
15
#242
#243
#244
#245
#246
05
#247
#248
#249
#250
#251
0#
1&
0(
1+
b1110 ,
b11100 -
b111001110 .
b000011000 1
b011100111 4
15
#252
#253
#254
#255
#256
05
#257
#258
#259
#260
#261
0$
1'
0)
b1100 ,
b11001 -
b110011100 .
b000011001 1
b111001110 4
15
#262
#263
#264
#265
#266
05
#267
#268
#269
#270
#271
1#
0%
1(
0*
b1001 ,
b10011 -
b100111001 .
b000011010 1
b110011100 4
15
#272
#273
#274
#275
#276
05
#277
#278
#279
#280
#281
1$
0&
1)
0+
b0011 ,
b00111 -
b001110011 .
b000011011 1
b100111001 4
15
#282
#283
#284
#285
#286
05
#287
#288
#289
#290
#291
0#
1%
0'
1*
b0110 ,
b01110 -
b011100110 .
b000011100 1
b001110011 4
15
#292
#293
#294
#295
#296
05
#297
#298
#299
#300
#301
0$
1&
0(
1+
b1100 ,
b11100 -
b111001100 .
b000011101 1
b011100110 4
15
#302
#303
#304
#305
#306
05
#307
#308
#309
#310
#311
0%
1'
0)
b1000 ,
b11001 -
b110011000 .
b000011110 1
b111001100 4
15
#312
#313
#314
#315
#316
05
#317
#318
#319
#320
#321
1#
0&
1(
0*
b0001 ,
b10011 -
b100110001 .
b000011111 1
b110011000 4
15
#322
#323
#324
#325
#326
05
#327
#328
#329
#330
#331
1$
0'
1)
0+
b0011 ,
b00110 -
b001100011 .
b000100000 1
b100110001 4
15
#332
#333
#334
#335
#336
05
#337
#338
#339
#340
#341
1%
0(
1*
b0111 ,
b01100 -
b011000111 .
b000100001 1
b001100011 4
15
#342
#343
#344
#345
#346
05
#347
#348
#349
#350
#351
1&
0)
1+
b1111 ,
b11000 -
b110001111 .
b000100010 1
b011000111 4
15
#352
#353
#354
#355
#356
05
#357
#358
#359
#360
#361
0#
1'
0*
b1110 ,
b10001 -
b100011110 .
b000100011 1
b110001111 4
15
#362
#363
#364
#365
#366
05
#367
#368
#369
#370
#371
0$
1(
0+
b1100 ,
b00011 -
b000111100 .
b000100100 1
b100011110 4
15
#372
#373
#374
#375
#376
05
#377
#378
#379
#380
#381
0%
1)
b1000 ,
b00111 -
b001111000 .
b000100101 1
b000111100 4
15
#382
#383
#384
#385
#386
05
#387
#388
#389
#390
#391
0&
1*
b0000 ,
b01111 -
b011110000 .
b000100110 1
b001111000 4
15
#392
#393
#394
#395
#396
05
#397
#398
#399
#400
#401
1#
0'
1+
b0001 ,
b11110 -
b111100001 .
b000100111 1
b011110000 4
15
#402
#403
#404
#405
#406
05
#407
#408
#409
#410
#411
1$
0(
b0011 ,
b11100 -
b111000011 .
b000101000 1
b111100001 4
15
#412
#413
#414
#415
#416
05
#417
#418
#419
#420
#421
0#
1%
0)
b0110 ,
b11000 -
b110000110 .
b000101001 1
b111000011 4
15
#422
#423
#424
#425
#426
05
#427
#428
#429
#430
#431
0$
1&
0*
b1100 ,
b10000 -
b100001100 .
b000101010 1
b110000110 4
15
#432
#433
#434
#435
#436
05
#437
#438
#439
#440
#441
1#
0%
1'
0+
b1001 ,
b00001 -
b000011001 .
b000101011 1
b100001100 4
15
#442
#443
#444
#445
#446
05
#447
#448
#449
#450
#451
1$
0&
1(
b0011 ,
b00011 -
b000110011 .
b000101100 1
b000011001 4
15
#452
#453
#454
#455
#456
05
#457
#458
#459
#460
#461
0#
1%
0'
1)
b0110 ,
b00110 -
b001100110 .
b000101101 1
b000110011 4
15
#462
#463
#464
#465
#466
05
#467
#468
#469
#470
#471
1#
0$
1&
0(
1*
b1101 ,
b01100 -
b011001101 .
b000101110 1
b001100110 4
15
#472
#473
#474
#475
#476
05
#477
#478
#479
#480
#481
1$
0%
1'
0)
1+
b1011 ,
b11001 -
b110011011 .
b000101111 1
b011001101 4
15
#482
#483
#484
#485
#486
05
#487
#488
#489
#490
#491
1%
0&
1(
0*
b0111 ,
b10011 -
b100110111 .
b000110000 1
b110011011 4
15
#492
#493
#494
#495
#496
05
#497
#498
#499
#500
#501
1&
0'
1)
0+
b1111 ,
b00110 -
b001101111 .
b000110001 1
b100110111 4
15
#502
#503
#504
#505
#506
05
#507
#508
#509
#510
#511
1'
0(
1*
b01101 -
b011011111 .
b000110010 1
b001101111 4
15
#512
#513
#514
#515
#516
05
#517
#518
#519
#520
#521
0#
1(
0)
1+
b1110 ,
b11011 -
b110111110 .
b000110011 1
b011011111 4
15
#522
#523
#524
#525
#526
05
#527
#528
#529
#530
#531
0$
1)
0*
b1100 ,
b10111 -
b101111100 .
b000110100 1
b110111110 4
15
#532
#533
#534
#535
#536
05
#537
#538
#539
#540
#541
1#
0%
1*
0+
b1001 ,
b01111 -
b011111001 .
b000110101 1
b101111100 4
15
#542
#543
#544
#545
#546
05
#547
#548
#549
#550
#551
1$
0&
1+
b0011 ,
b11111 -
b111110011 .
b000110110 1
b011111001 4
15
#552
#553
#554
#555
#556
05
#557
#558
#559
#560
#561
0#
1%
0'
b0110 ,
b11110 -
b111100110 .
b000110111 1
b111110011 4
15
#562
#563
#564
#565
#566
05
#567
#568
#569
#570
#571
1#
0$
1&
0(
b1101 ,
b11100 -
b111001101 .
b000111000 1
b111100110 4
15
#572
#573
#574
#575
#576
05
#577
#578
#579
#580
#581
0#
1$
0%
1'
0)
b1010 ,
b11001 -
b110011010 .
b000111001 1
b111001101 4
15
#582
#583
#584
#585
#586
05
#587
#588
#589
#590
#591
1#
0$
1%
0&
1(
0*
b0101 ,
b10011 -
b100110101 .
b000111010 1
b110011010 4
15
#592
#593
#594
#595
#596
05
#597
#598
#599
#600
#601
1$
0%
1&
0'
1)
0+
b1011 ,
b00110 -
b001101011 .
b000111011 1
b100110101 4
15
#602
#603
#604
#605
#606
05
#607
#608
#609
#610
#611
1%
0&
1'
0(
1*
b0111 ,
b01101 -
b011010111 .
b000111100 1
b001101011 4
15
#612
#613
#614
#615
#616
05
#617
#618
#619
#620
#621
0#
1&
0'
1(
0)
1+
b1110 ,
b11010 -
b110101110 .
b000111101 1
b011010111 4
15
#622
#623
#624
#625
#626
05
#627
#628
#629
#630
#631
1#
0$
1'
0(
1)
0*
b1101 ,
b10101 -
b101011101 .
b000111110 1
b110101110 4
15
#632
#633
#634
#635
#636
05
#637
#638
#639
#640
#641
0#
1$
0%
1(
0)
1*
0+
b1010 ,
b01011 -
b010111010 .
b000111111 1
b101011101 4
15
#642
#643
#644
#645
#646
05
#647
#648
#649
#650
#651
1#
0$
1%
0&
1)
0*
1+
b0101 ,
b10111 -
b101110101 .
b001000000 1
b010111010 4
15
#652
#653
#654
#655
#656
05
#657
#658
#659
#660
#661
1$
0%
1&
0'
1*
0+
b1011 ,
b01110 -
b011101011 .
b001000001 1
b101110101 4
15
#662
#663
#664
#665
#666
05
#667
#668
#669
#670
#671
0#
1%
0&
1'
0(
1+
b0110 ,
b11101 -
b111010110 .
b001000010 1
b011101011 4
15
#672
#673
#674
#675
#676
05
#677
#678
#679
#680
#681
1#
0$
1&
0'
1(
0)
b1101 ,
b11010 -
b110101101 .
b001000011 1
b111010110 4
15
#682
#683
#684
#685
#686
05
#687
#688
#689
#690
#691
1$
0%
1'
0(
1)
0*
b1011 ,
b10101 -
b101011011 .
b001000100 1
b110101101 4
15
#692
#693
#694
#695
#696
05
#697
#698
#699
#700
#701
0#
1%
0&
1(
0)
1*
0+
b0110 ,
b01011 -
b010110110 .
b001000101 1
b101011011 4
15
#702
#703
#704
#705
#706
05
#707
#708
#709
#710
#711
1#
0$
1&
0'
1)
0*
1+
b1101 ,
b10110 -
b101101101 .
b001000110 1
b010110110 4
15
#712
#713
#714
#715
#716
05
#717
#718
#719
#720
#721
0#
1$
0%
1'
0(
1*
0+
b1010 ,
b01101 -
b011011010 .
b001000111 1
b101101101 4
15
#722
#723
#724
#725
#726
05
#727
#728
#729
#730
#731
0$
1%
0&
1(
0)
1+
b0100 ,
b11011 -
b110110100 .
b001001000 1
b011011010 4
15
#732
#733
#734
#735
#736
05
#737
#738
#739
#740
#741
0%
1&
0'
1)
0*
b1000 ,
b10110 -
b101101000 .
b001001001 1
b110110100 4
15
#742
#743
#744
#745
#746
05
#747
#748
#749
#750
#751
0&
1'
0(
1*
0+
b0000 ,
b01101 -
b011010000 .
b001001010 1
b101101000 4
15
#752
#753
#754
#755
#756
05
#757
#758
#759
#760
#761
0'
1(
0)
1+
b11010 -
b110100000 .
b001001011 1
b011010000 4
15
#762
#763
#764
#765
#766
05
#767
#768
#769
#770
#771
1#
0(
1)
0*
b0001 ,
b10100 -
b101000001 .
b001001100 1
b110100000 4
15
#772
#773
#774
#775
#776
05
#777
#778
#779
#780
#781
1$
0)
1*
0+
b0011 ,
b01000 -
b010000011 .
b001001101 1
b101000001 4
15
#782
#783
#784
#785
#786
05
#787
#788
#789
#790
#791
1%
0*
1+
b0111 ,
b10000 -
b100000111 .
b001001110 1
b010000011 4
15
#792
#793
#794
#795
#796
05
#797
#798
#799
#800
#801
1&
0+
b1111 ,
b00000 -
b000001111 .
b001001111 1
b100000111 4
15
#802
#803
#804
#805
#806
05
#807
#808
#809
#810
#811
0#
1'
b1110 ,
b00001 -
b000011110 .
b001010000 1
b000001111 4
15
#812
#813
#814
#815
#816
05
#817
#818
#819
#820
#821
1#
0$
1(
b1101 ,
b00011 -
b000111101 .
b001010001 1
b000011110 4
15
#822
#823
#824
#825
#826
05
#827
#828
#829
#830
#831
0#
1$
0%
1)
b1010 ,
b00111 -
b001111010 .
b001010010 1
b000111101 4
15
#832
#833
#834
#835
#836
05
#837
#838
#839
#840
#841
0$
1%
0&
1*
b0100 ,
b01111 -
b011110100 .
b001010011 1
b001111010 4
15
#842
#843
#844
#845
#846
05
#847
#848
#849
#850
#851
1#
0%
1&
0'
1+
b1001 ,
b11110 -
b111101001 .
b001010100 1
b011110100 4
15
#852
#853
#854
#855
#856
05
#857
#858
#859
#860
#861
1$
0&
1'
0(
b0011 ,
b11101 -
b111010011 .
b001010101 1
b111101001 4
15
#862
#863
#864
#865
#866
05
#867
#868
#869
#870
#871
1%
0'
1(
0)
b0111 ,
b11010 -
b110100111 .
b001010110 1
b111010011 4
15
#872
#873
#874
#875
#876
05
#877
#878
#879
#880
#881
1&
0(
1)
0*
b1111 ,
b10100 -
b101001111 .
b001010111 1
b110100111 4
15
#882
#883
#884
#885
#886
05
#887
#888
#889
#890
#891
1'
0)
1*
0+
b01001 -
b010011111 .
b001011000 1
b101001111 4
15
#892
#893
#894
#895
#896
05
#897
#898
#899
#900
#901
0#
1(
0*
1+
b1110 ,
b10011 -
b100111110 .
b001011001 1
b010011111 4
15
#902
#903
#904
#905
#906
05
#907
#908
#909
#910
#911
1#
0$
1)
0+
b1101 ,
b00111 -
b001111101 .
b001011010 1
b100111110 4
15
#912
#913
#914
#915
#916
05
#917
#918
#919
#920
#921
0#
1$
0%
1*
b1010 ,
b01111 -
b011111010 .
b001011011 1
b001111101 4
15
#922
#923
#924
#925
#926
05
#927
#928
#929
#930
#931
1#
0$
1%
0&
1+
b0101 ,
b11111 -
b111110101 .
b001011100 1
b011111010 4
15
#932
#933
#934
#935
#936
05
#937
#938
#939
#940
#941
0#
1$
0%
1&
0'
b1010 ,
b11110 -
b111101010 .
b001011101 1
b111110101 4
15
#942
#943
#944
#945
#946
05
#947
#948
#949
#950
#951
1#
0$
1%
0&
1'
0(
b0101 ,
b11101 -
b111010101 .
b001011110 1
b111101010 4
15
#952
#953
#954
#955
#956
05
#957
#958
#959
#960
#961
1$
0%
1&
0'
1(
0)
b1011 ,
b11010 -
b110101011 .
b001011111 1
b111010101 4
15
#962
#963
#964
#965
#966
05
#967
#968
#969
#970
#971
1%
0&
1'
0(
1)
0*
b0111 ,
b10101 -
b101010111 .
b001100000 1
b110101011 4
15
#972
#973
#974
#975
#976
05
#977
#978
#979
#980
#981
0#
1&
0'
1(
0)
1*
0+
b1110 ,
b01010 -
b010101110 .
b001100001 1
b101010111 4
15
#982
#983
#984
#985
#986
05
#987
#988
#989
#990
#991
0$
1'
0(
1)
0*
1+
b1100 ,
b10101 -
b101011100 .
b001100010 1
b010101110 4
15
#992
#993
#994
#995
#996
05
#997
#998
#999
#1000
#1001
0%
1(
0)
1*
0+
b1000 ,
b01011 -
b010111000 .
b001100011 1
b101011100 4
15
#1002
#1003
#1004
#1005
#1006
05
#1007
#1008
#1009
#1010
#1011
1#
0&
1)
0*
1+
b0001 ,
b10111 -
b101110001 .
b001100100 1
b010111000 4
15
#1012
#1013
#1014
#1015
#1016
05
#1017
#1018
#1019
#1020
#1021
1$
0'
1*
0+
b0011 ,
b01110 -
b011100011 .
b001100101 1
b101110001 4
15
#1022
#1023
#1024
#1025
#1026
05
#1027
#1028
#1029
#1030
#1031
0#
1%
0(
1+
b0110 ,
b11100 -
b111000110 .
b001100110 1
b011100011 4
15
#1032
#1033
#1034
#1035
#1036
05
#1037
#1038
#1039
#1040
#1041
0$
1&
0)
b1100 ,
b11000 -
b110001100 .
b001100111 1
b111000110 4
15
#1042
#1043
#1044
#1045
#1046
05
#1047
#1048
#1049
#1050
#1051
0%
1'
0*
b1000 ,
b10001 -
b100011000 .
b001101000 1
b110001100 4
15
#1052
#1053
#1054
#1055
#1056
05
#1057
#1058
#1059
#1060
#1061
0&
1(
0+
b0000 ,
b00011 -
b000110000 .
b001101001 1
b100011000 4
15
#1062
#1063
#1064
#1065
#1066
05
#1067
#1068
#1069
#1070
#1071
0'
1)
b00110 -
b001100000 .
b001101010 1
b000110000 4
15
#1072
#1073
#1074
#1075
#1076
05
#1077
#1078
#1079
#1080
#1081
1#
0(
1*
b0001 ,
b01100 -
b011000001 .
b001101011 1
b001100000 4
15
#1082
#1083
#1084
#1085
#1086
05
#1087
#1088
#1089
#1090
#1091
1$
0)
1+
b0011 ,
b11000 -
b110000011 .
b001101100 1
b011000001 4
15
#1092
#1093
#1094
#1095
#1096
05
#1097
#1098
#1099
#1100
#1101
0#
1%
0*
b0110 ,
b10000 -
b100000110 .
b001101101 1
b110000011 4
15
#1102
#1103
#1104
#1105
#1106
05
#1107
#1108
#1109
#1110
#1111
1#
0$
1&
0+
b1101 ,
b00000 -
b000001101 .
b001101110 1
b100000110 4
15
#1112
#1113
#1114
#1115
#1116
05
#1117
#1118
#1119
#1120
#1121
0#
1$
0%
1'
b1010 ,
b00001 -
b000011010 .
b001101111 1
b000001101 4
15
#1122
#1123
#1124
#1125
#1126
05
#1127
#1128
#1129
#1130
#1131
1#
0$
1%
0&
1(
b0101 ,
b00011 -
b000110101 .
b001110000 1
b000011010 4
15
#1132
#1133
#1134
#1135
#1136
05
#1137
#1138
#1139
#1140
#1141
0#
1$
0%
1&
0'
1)
b1010 ,
b00110 -
b001101010 .
b001110001 1
b000110101 4
15
#1142
#1143
#1144
#1145
#1146
05
#1147
#1148
#1149
#1150
#1151
1#
0$
1%
0&
1'
0(
1*
b0101 ,
b01101 -
b011010101 .
b001110010 1
b001101010 4
15
#1152
#1153
#1154
#1155
#1156
05
#1157
#1158
#1159
#1160
#1161
0#
1$
0%
1&
0'
1(
0)
1+
b1010 ,
b11010 -
b110101010 .
b001110011 1
b011010101 4
15
#1162
#1163
#1164
#1165
#1166
05
#1167
#1168
#1169
#1170
#1171
1#
0$
1%
0&
1'
0(
1)
0*
b0101 ,
b10101 -
b101010101 .
b001110100 1
b110101010 4
15
#1172
#1173
#1174
#1175
#1176
05
#1177
#1178
#1179
#1180
#1181
0#
1$
0%
1&
0'
1(
0)
1*
0+
b1010 ,
b01010 -
b010101010 .
b001110101 1
b101010101 4
15
#1182
#1183
#1184
#1185
#1186
05
#1187
#1188
#1189
#1190
#1191
0$
1%
0&
1'
0(
1)
0*
1+
b0100 ,
b10101 -
b101010100 .
b001110110 1
b010101010 4
15
#1192
#1193
#1194
#1195
#1196
05
#1197
#1198
#1199
#1200
#1201
0%
1&
0'
1(
0)
1*
0+
b1000 ,
b01010 -
b010101000 .
b001110111 1
b101010100 4
15
#1202
#1203
#1204
#1205
#1206
05
#1207
#1208
#1209
#1210
#1211
0&
1'
0(
1)
0*
1+
b0000 ,
b10101 -
b101010000 .
b001111000 1
b010101000 4
15
#1212
#1213
#1214
#1215
#1216
05
#1217
#1218
#1219
#1220
#1221
0'
1(
0)
1*
0+
b01010 -
b010100000 .
b001111001 1
b101010000 4
15
#1222
#1223
#1224
#1225
#1226
05
#1227
#1228
#1229
#1230
#1231
0(
1)
0*
1+
b10100 -
b101000000 .
b001111010 1
b010100000 4
15
#1232
#1233
#1234
#1235
#1236
05
#1237
#1238
#1239
#1240
#1241
1#
0)
1*
0+
b0001 ,
b01000 -
b010000001 .
b001111011 1
b101000000 4
15
#1242
#1243
#1244
#1245
#1246
05
#1247
#1248
#1249
#1250
#1251
1$
0*
1+
b0011 ,
b10000 -
b100000011 .
b001111100 1
b010000001 4
15
#1252
#1253
#1254
#1255
#1256
05
#1257
#1258
#1259
#1260
#1261
1%
0+
b0111 ,
b00000 -
b000000111 .
b001111101 1
b100000011 4
15
#1262
#1263
#1264
#1265
#1266
05
#1267
#1268
#1269
#1270
#1271
0#
1&
b1110 ,
b000001110 .
b001111110 1
b000000111 4
15
#1272
#1273
#1274
#1275
#1276
05
#1277
#1278
#1279
#1280
#1281
0$
1'
b1100 ,
b00001 -
b000011100 .
b001111111 1
b000001110 4
15
#1282
#1283
#1284
#1285
#1286
05
#1287
#1288
#1289
#1290
#1291
1#
0%
1(
b1001 ,
b00011 -
b000111001 .
b010000000 1
b000011100 4
15
#1292
#1293
#1294
#1295
#1296
05
#1297
#1298
#1299
#1300
#1301
0#
1$
0&
1)
b0010 ,
b00111 -
b001110010 .
b010000001 1
b000111001 4
15
#1302
#1303
#1304
#1305
#1306
05
#1307
#1308
#1309
#1310
#1311
0$
1%
0'
1*
b0100 ,
b01110 -
b011100100 .
b010000010 1
b001110010 4
15
#1312
#1313
#1314
#1315
#1316
05
#1317
#1318
#1319
#1320
#1321
0%
1&
0(
1+
b1000 ,
b11100 -
b111001000 .
b010000011 1
b011100100 4
15
#1322
#1323
#1324
#1325
#1326
05
#1327
#1328
#1329
#1330
#1331
0&
1'
0)
b0000 ,
b11001 -
b110010000 .
b010000100 1
b111001000 4
15
#1332
#1333
#1334
#1335
#1336
05
#1337
#1338
#1339
#1340
#1341
1#
0'
1(
0*
b0001 ,
b10010 -
b100100001 .
b010000101 1
b110010000 4
15
#1342
#1343
#1344
#1345
#1346
05
#1347
#1348
#1349
#1350
#1351
0#
1$
0(
1)
0+
b0010 ,
b00100 -
b001000010 .
b010000110 1
b100100001 4
15
#1352
#1353
#1354
#1355
#1356
05
#1357
#1358
#1359
#1360
#1361
0$
1%
0)
1*
b0100 ,
b01000 -
b010000100 .
b010000111 1
b001000010 4
15
#1362
#1363
#1364
#1365
#1366
05
#1367
#1368
#1369
#1370
#1371
1#
0%
1&
0*
1+
b1001 ,
b10000 -
b100001001 .
b010001000 1
b010000100 4
15
#1372
#1373
#1374
#1375
#1376
05
#1377
#1378
#1379
#1380
#1381
1$
0&
1'
0+
b0011 ,
b00001 -
b000010011 .
b010001001 1
b100001001 4
15
#1382
#1383
#1384
#1385
#1386
05
#1387
#1388
#1389
#1390
#1391
1%
0'
1(
b0111 ,
b00010 -
b000100111 .
b010001010 1
b000010011 4
15
#1392
#1393
#1394
#1395
#1396
05
#1397
#1398
#1399
#1400
#1401
1&
0(
1)
b1111 ,
b00100 -
b001001111 .
b010001011 1
b000100111 4
15
#1402
#1403
#1404
#1405
#1406
05
#1407
#1408
#1409
#1410
#1411
0#
1'
0)
1*
b1110 ,
b01001 -
b010011110 .
b010001100 1
b001001111 4
15
#1412
#1413
#1414
#1415
#1416
05
#1417
#1418
#1419
#1420
#1421
0$
1(
0*
1+
b1100 ,
b10011 -
b100111100 .
b010001101 1
b010011110 4
15
#1422
#1423
#1424
#1425
#1426
05
#1427
#1428
#1429
#1430
#1431
1#
0%
1)
0+
b1001 ,
b00111 -
b001111001 .
b010001110 1
b100111100 4
15
#1432
#1433
#1434
#1435
#1436
05
#1437
#1438
#1439
#1440
#1441
0#
1$
0&
1*
b0010 ,
b01111 -
b011110010 .
b010001111 1
b001111001 4
15
#1442
#1443
#1444
#1445
#1446
05
#1447
#1448
#1449
#1450
#1451
1#
0$
1%
0'
1+
b0101 ,
b11110 -
b111100101 .
b010010000 1
b011110010 4
15
#1452
#1453
#1454
#1455
#1456
05
#1457
#1458
#1459
#1460
#1461
1$
0%
1&
0(
b1011 ,
b11100 -
b111001011 .
b010010001 1
b111100101 4
15
#1462
#1463
#1464
#1465
#1466
05
#1467
#1468
#1469
#1470
#1471
0#
1%
0&
1'
0)
b0110 ,
b11001 -
b110010110 .
b010010010 1
b111001011 4
15
#1472
#1473
#1474
#1475
#1476
05
#1477
#1478
#1479
#1480
#1481
1#
0$
1&
0'
1(
0*
b1101 ,
b10010 -
b100101101 .
b010010011 1
b110010110 4
15
#1482
#1483
#1484
#1485
#1486
05
#1487
#1488
#1489
#1490
#1491
0#
1$
0%
1'
0(
1)
0+
b1010 ,
b00101 -
b001011010 .
b010010100 1
b100101101 4
15
#1492
#1493
#1494
#1495
#1496
05
#1497
#1498
#1499
#1500
#1501
1#
0$
1%
0&
1(
0)
1*
b0101 ,
b01011 -
b010110101 .
b010010101 1
b001011010 4
15
#1502
#1503
#1504
#1505
#1506
05
#1507
#1508
#1509
#1510
#1511
1$
0%
1&
0'
1)
0*
1+
b1011 ,
b10110 -
b101101011 .
b010010110 1
b010110101 4
15
#1512
#1513
#1514
#1515
#1516
05
#1517
#1518
#1519
#1520
#1521
0#
1%
0&
1'
0(
1*
0+
b0110 ,
b01101 -
b011010110 .
b010010111 1
b101101011 4
15
#1522
#1523
#1524
#1525
#1526
05
#1527
#1528
#1529
#1530
#1531
0$
1&
0'
1(
0)
1+
b1100 ,
b11010 -
b110101100 .
b010011000 1
b011010110 4
15
#1532
#1533
#1534
#1535
#1536
05
#1537
#1538
#1539
#1540
#1541
1#
0%
1'
0(
1)
0*
b1001 ,
b10101 -
b101011001 .
b010011001 1
b110101100 4
15
#1542
#1543
#1544
#1545
#1546
05
#1547
#1548
#1549
#1550
#1551
0#
1$
0&
1(
0)
1*
0+
b0010 ,
b01011 -
b010110010 .
b010011010 1
b101011001 4
15
#1552
#1553
#1554
#1555
#1556
05
#1557
#1558
#1559
#1560
#1561
1#
0$
1%
0'
1)
0*
1+
b0101 ,
b10110 -
b101100101 .
b010011011 1
b010110010 4
15
#1562
#1563
#1564
#1565
#1566
05
#1567
#1568
#1569
#1570
#1571
0#
1$
0%
1&
0(
1*
0+
b1010 ,
b01100 -
b011001010 .
b010011100 1
b101100101 4
15
#1572
#1573
#1574
#1575
#1576
05
#1577
#1578
#1579
#1580
#1581
1#
0$
1%
0&
1'
0)
1+
b0101 ,
b11001 -
b110010101 .
b010011101 1
b011001010 4
15
#1582
#1583
#1584
#1585
#1586
05
#1587
#1588
#1589
#1590
#1591
1$
0%
1&
0'
1(
0*
b1011 ,
b10010 -
b100101011 .
b010011110 1
b110010101 4
15
#1592
#1593
#1594
#1595
#1596
05
#1597
#1598
#1599
#1600
#1601
0#
1%
0&
1'
0(
1)
0+
b0110 ,
b00101 -
b001010110 .
b010011111 1
b100101011 4
15
#1602
#1603
#1604
#1605
#1606
05
#1607
#1608
#1609
#1610
#1611
1#
0$
1&
0'
1(
0)
1*
b1101 ,
b01010 -
b010101101 .
b010100000 1
b001010110 4
15
#1612
#1613
#1614
#1615
#1616
05
#1617
#1618
#1619
#1620
#1621
0#
1$
0%
1'
0(
1)
0*
1+
b1010 ,
b10101 -
b101011010 .
b010100001 1
b010101101 4
15
#1622
#1623
#1624
#1625
#1626
05
#1627
#1628
#1629
#1630
